%YAML 1.1
%TAG !u! tag:unity3d.com,2011:
--- !u!114 &11400000
MonoBehaviour:
  m_ObjectHideFlags: 0
  m_CorrespondingSourceObject: {fileID: 0}
  m_PrefabInstance: {fileID: 0}
  m_PrefabAsset: {fileID: 0}
  m_GameObject: {fileID: 0}
  m_Enabled: 1
  m_EditorHideFlags: 0
  m_Script: {fileID: 11500000, guid: 13b75c95f34a00d4e8c04f76b73312e6, type: 3}
  m_Name: Green
  m_EditorClassIdentifier: 
  m_AnimatedSprites:
  - {fileID: -813529946, guid: 50815df2b60cef346836d1c54cd51a1f, type: 3}
  - {fileID: 1964817836, guid: 50815df2b60cef346836d1c54cd51a1f, type: 3}
  - {fileID: 443811161, guid: 50815df2b60cef346836d1c54cd51a1f, type: 3}
  - {fileID: 1566395730, guid: 50815df2b60cef346836d1c54cd51a1f, type: 3}
  - {fileID: 443811161, guid: 50815df2b60cef346836d1c54cd51a1f, type: 3}
  - {fileID: 1964817836, guid: 50815df2b60cef346836d1c54cd51a1f, type: 3}
  m_MinSpeed: 4
  m_MaxSpeed: 4
  m_AnimationStartTime: 0
  m_AnimationStartFrame: 0
  m_TileColliderType: 0
