%YAML 1.1
%TAG !u! tag:unity3d.com,2011:
--- !u!54 &1461337064
Rigidbody:
  m_ObjectHideFlags: 0
  m_CorrespondingSourceObject: {fileID: 0}
  m_PrefabInstance: {fileID: 0}
  m_PrefabAsset: {fileID: 0}
  m_GameObject: {fileID: 6307325082222673644}
  serializedVersion: 2
  m_Mass: 0.2
  m_Drag: 0
  m_AngularDrag: 0.05
  m_UseGravity: 1
  m_IsKinematic: 0
  m_Interpolate: 0
  m_Constraints: 0
  m_CollisionDetection: 0
--- !u!135 &1461337065
SphereCollider:
  m_ObjectHideFlags: 0
  m_CorrespondingSourceObject: {fileID: 0}
  m_PrefabInstance: {fileID: 0}
  m_PrefabAsset: {fileID: 0}
  m_GameObject: {fileID: 6307325082222673644}
  m_Material: {fileID: 0}
  m_IsTrigger: 0
  m_Enabled: 1
  serializedVersion: 2
  m_Radius: 0.6411915
  m_Center: {x: 0, y: 1.739873, z: 0.1629028}
--- !u!1001 &6577920050530223037
PrefabInstance:
  m_ObjectHideFlags: 0
  serializedVersion: 2
  m_Modification:
    m_TransformParent: {fileID: 0}
    m_Modifications:
    - target: {fileID: -8679921383154817045, guid: cabd01c35b5a64f4fb2967d6bf110c9f, type: 3}
      propertyPath: m_RootOrder
      value: 0
      objectReference: {fileID: 0}
    - target: {fileID: -8679921383154817045, guid: cabd01c35b5a64f4fb2967d6bf110c9f, type: 3}
      propertyPath: m_LocalPosition.x
      value: -866.7103
      objectReference: {fileID: 0}
    - target: {fileID: -8679921383154817045, guid: cabd01c35b5a64f4fb2967d6bf110c9f, type: 3}
      propertyPath: m_LocalPosition.y
      value: 15.85
      objectReference: {fileID: 0}
    - target: {fileID: -8679921383154817045, guid: cabd01c35b5a64f4fb2967d6bf110c9f, type: 3}
      propertyPath: m_LocalPosition.z
      value: 29.380047
      objectReference: {fileID: 0}
    - target: {fileID: -8679921383154817045, guid: cabd01c35b5a64f4fb2967d6bf110c9f, type: 3}
      propertyPath: m_LocalRotation.w
      value: 1
      objectReference: {fileID: 0}
    - target: {fileID: -8679921383154817045, guid: cabd01c35b5a64f4fb2967d6bf110c9f, type: 3}
      propertyPath: m_LocalRotation.x
      value: 0
      objectReference: {fileID: 0}
    - target: {fileID: -8679921383154817045, guid: cabd01c35b5a64f4fb2967d6bf110c9f, type: 3}
      propertyPath: m_LocalRotation.y
      value: -0
      objectReference: {fileID: 0}
    - target: {fileID: -8679921383154817045, guid: cabd01c35b5a64f4fb2967d6bf110c9f, type: 3}
      propertyPath: m_LocalRotation.z
      value: -0
      objectReference: {fileID: 0}
    - target: {fileID: -8679921383154817045, guid: cabd01c35b5a64f4fb2967d6bf110c9f, type: 3}
      propertyPath: m_LocalEulerAnglesHint.x
      value: 0
      objectReference: {fileID: 0}
    - target: {fileID: -8679921383154817045, guid: cabd01c35b5a64f4fb2967d6bf110c9f, type: 3}
      propertyPath: m_LocalEulerAnglesHint.y
      value: 0
      objectReference: {fileID: 0}
    - target: {fileID: -8679921383154817045, guid: cabd01c35b5a64f4fb2967d6bf110c9f, type: 3}
      propertyPath: m_LocalEulerAnglesHint.z
      value: 0
      objectReference: {fileID: 0}
    - target: {fileID: 919132149155446097, guid: cabd01c35b5a64f4fb2967d6bf110c9f, type: 3}
      propertyPath: m_Name
      value: greenball Variant
      objectReference: {fileID: 0}
    m_RemovedComponents: []
  m_SourcePrefab: {fileID: 100100000, guid: cabd01c35b5a64f4fb2967d6bf110c9f, type: 3}
--- !u!1 &6307325082222673644 stripped
GameObject:
  m_CorrespondingSourceObject: {fileID: 919132149155446097, guid: cabd01c35b5a64f4fb2967d6bf110c9f, type: 3}
  m_PrefabInstance: {fileID: 6577920050530223037}
  m_PrefabAsset: {fileID: 0}
