%YAML 1.1
%TAG !u! tag:unity3d.com,2011:
--- !u!54 &6499417502540215214
Rigidbody:
  m_ObjectHideFlags: 0
  m_CorrespondingSourceObject: {fileID: 0}
  m_PrefabInstance: {fileID: 0}
  m_PrefabAsset: {fileID: 0}
  m_GameObject: {fileID: 9014088447026287360}
  serializedVersion: 2
  m_Mass: 0.2
  m_Drag: 0
  m_AngularDrag: 0.05
  m_UseGravity: 1
  m_IsKinematic: 0
  m_Interpolate: 0
  m_Constraints: 0
  m_CollisionDetection: 0
--- !u!135 &4953403836254938027
SphereCollider:
  m_ObjectHideFlags: 0
  m_CorrespondingSourceObject: {fileID: 0}
  m_PrefabInstance: {fileID: 0}
  m_PrefabAsset: {fileID: 0}
  m_GameObject: {fileID: 9014088447026287360}
  m_Material: {fileID: 0}
  m_IsTrigger: 0
  m_Enabled: 1
  serializedVersion: 2
  m_Radius: 0.6411915
  m_Center: {x: 0, y: 1.739873, z: 0.1629028}
--- !u!1001 &8203606333727534673
PrefabInstance:
  m_ObjectHideFlags: 0
  serializedVersion: 2
  m_Modification:
    m_TransformParent: {fileID: 0}
    m_Modifications:
    - target: {fileID: -8679921383154817045, guid: 3d241b64595949e45900a6f1743378a9, type: 3}
      propertyPath: m_RootOrder
      value: 0
      objectReference: {fileID: 0}
    - target: {fileID: -8679921383154817045, guid: 3d241b64595949e45900a6f1743378a9, type: 3}
      propertyPath: m_LocalPosition.x
      value: -864.87897
      objectReference: {fileID: 0}
    - target: {fileID: -8679921383154817045, guid: 3d241b64595949e45900a6f1743378a9, type: 3}
      propertyPath: m_LocalPosition.y
      value: 15.85
      objectReference: {fileID: 0}
    - target: {fileID: -8679921383154817045, guid: 3d241b64595949e45900a6f1743378a9, type: 3}
      propertyPath: m_LocalPosition.z
      value: 24.788328
      objectReference: {fileID: 0}
    - target: {fileID: -8679921383154817045, guid: 3d241b64595949e45900a6f1743378a9, type: 3}
      propertyPath: m_LocalRotation.w
      value: 1
      objectReference: {fileID: 0}
    - target: {fileID: -8679921383154817045, guid: 3d241b64595949e45900a6f1743378a9, type: 3}
      propertyPath: m_LocalRotation.x
      value: 0
      objectReference: {fileID: 0}
    - target: {fileID: -8679921383154817045, guid: 3d241b64595949e45900a6f1743378a9, type: 3}
      propertyPath: m_LocalRotation.y
      value: -0
      objectReference: {fileID: 0}
    - target: {fileID: -8679921383154817045, guid: 3d241b64595949e45900a6f1743378a9, type: 3}
      propertyPath: m_LocalRotation.z
      value: -0
      objectReference: {fileID: 0}
    - target: {fileID: -8679921383154817045, guid: 3d241b64595949e45900a6f1743378a9, type: 3}
      propertyPath: m_LocalEulerAnglesHint.x
      value: 0
      objectReference: {fileID: 0}
    - target: {fileID: -8679921383154817045, guid: 3d241b64595949e45900a6f1743378a9, type: 3}
      propertyPath: m_LocalEulerAnglesHint.y
      value: 0
      objectReference: {fileID: 0}
    - target: {fileID: -8679921383154817045, guid: 3d241b64595949e45900a6f1743378a9, type: 3}
      propertyPath: m_LocalEulerAnglesHint.z
      value: 0
      objectReference: {fileID: 0}
    - target: {fileID: 919132149155446097, guid: 3d241b64595949e45900a6f1743378a9, type: 3}
      propertyPath: m_Name
      value: redball Variant
      objectReference: {fileID: 0}
    m_RemovedComponents: []
  m_SourcePrefab: {fileID: 100100000, guid: 3d241b64595949e45900a6f1743378a9, type: 3}
--- !u!1 &9014088447026287360 stripped
GameObject:
  m_CorrespondingSourceObject: {fileID: 919132149155446097, guid: 3d241b64595949e45900a6f1743378a9, type: 3}
  m_PrefabInstance: {fileID: 8203606333727534673}
  m_PrefabAsset: {fileID: 0}
