%YAML 1.1
%TAG !u! tag:unity3d.com,2011:
--- !u!54 &442455461
Rigidbody:
  m_ObjectHideFlags: 0
  m_CorrespondingSourceObject: {fileID: 0}
  m_PrefabInstance: {fileID: 0}
  m_PrefabAsset: {fileID: 0}
  m_GameObject: {fileID: 2267843980071403345}
  serializedVersion: 2
  m_Mass: 1
  m_Drag: 0
  m_AngularDrag: 0.05
  m_UseGravity: 1
  m_IsKinematic: 0
  m_Interpolate: 0
  m_Constraints: 0
  m_CollisionDetection: 0
--- !u!64 &442455462
MeshCollider:
  m_ObjectHideFlags: 0
  m_CorrespondingSourceObject: {fileID: 0}
  m_PrefabInstance: {fileID: 0}
  m_PrefabAsset: {fileID: 0}
  m_GameObject: {fileID: 2267843980071403345}
  m_Material: {fileID: 0}
  m_IsTrigger: 0
  m_Enabled: 1
  serializedVersion: 4
  m_Convex: 1
  m_CookingOptions: 30
  m_Mesh: {fileID: -2432090755550338912, guid: b30b32bc87bce544088b9cbb477b4156, type: 3}
--- !u!1001 &1421001974884909568
PrefabInstance:
  m_ObjectHideFlags: 0
  serializedVersion: 2
  m_Modification:
    m_TransformParent: {fileID: 0}
    m_Modifications:
    - target: {fileID: -8679921383154817045, guid: b30b32bc87bce544088b9cbb477b4156, type: 3}
      propertyPath: m_RootOrder
      value: 0
      objectReference: {fileID: 0}
    - target: {fileID: -8679921383154817045, guid: b30b32bc87bce544088b9cbb477b4156, type: 3}
      propertyPath: m_LocalPosition.x
      value: -850.4718
      objectReference: {fileID: 0}
    - target: {fileID: -8679921383154817045, guid: b30b32bc87bce544088b9cbb477b4156, type: 3}
      propertyPath: m_LocalPosition.y
      value: 12.37
      objectReference: {fileID: 0}
    - target: {fileID: -8679921383154817045, guid: b30b32bc87bce544088b9cbb477b4156, type: 3}
      propertyPath: m_LocalPosition.z
      value: 21.505146
      objectReference: {fileID: 0}
    - target: {fileID: -8679921383154817045, guid: b30b32bc87bce544088b9cbb477b4156, type: 3}
      propertyPath: m_LocalRotation.w
      value: 1
      objectReference: {fileID: 0}
    - target: {fileID: -8679921383154817045, guid: b30b32bc87bce544088b9cbb477b4156, type: 3}
      propertyPath: m_LocalRotation.x
      value: 0
      objectReference: {fileID: 0}
    - target: {fileID: -8679921383154817045, guid: b30b32bc87bce544088b9cbb477b4156, type: 3}
      propertyPath: m_LocalRotation.y
      value: -0
      objectReference: {fileID: 0}
    - target: {fileID: -8679921383154817045, guid: b30b32bc87bce544088b9cbb477b4156, type: 3}
      propertyPath: m_LocalRotation.z
      value: -0
      objectReference: {fileID: 0}
    - target: {fileID: -8679921383154817045, guid: b30b32bc87bce544088b9cbb477b4156, type: 3}
      propertyPath: m_LocalEulerAnglesHint.x
      value: 0
      objectReference: {fileID: 0}
    - target: {fileID: -8679921383154817045, guid: b30b32bc87bce544088b9cbb477b4156, type: 3}
      propertyPath: m_LocalEulerAnglesHint.y
      value: 0
      objectReference: {fileID: 0}
    - target: {fileID: -8679921383154817045, guid: b30b32bc87bce544088b9cbb477b4156, type: 3}
      propertyPath: m_LocalEulerAnglesHint.z
      value: 0
      objectReference: {fileID: 0}
    - target: {fileID: 919132149155446097, guid: b30b32bc87bce544088b9cbb477b4156, type: 3}
      propertyPath: m_Name
      value: Wortel
      objectReference: {fileID: 0}
    m_RemovedComponents: []
  m_SourcePrefab: {fileID: 100100000, guid: b30b32bc87bce544088b9cbb477b4156, type: 3}
--- !u!1 &2267843980071403345 stripped
GameObject:
  m_CorrespondingSourceObject: {fileID: 919132149155446097, guid: b30b32bc87bce544088b9cbb477b4156, type: 3}
  m_PrefabInstance: {fileID: 1421001974884909568}
  m_PrefabAsset: {fileID: 0}
