# MagicaVoxel @ Ephtracy

# group
o 

# material
mtllib horse.mtl
usemtl palette

# normals
vn -1 0 0
vn 1 0 0
vn 0 0 1
vn 0 0 -1
vn 0 -1 0
vn 0 1 0

# texcoords
vt 0.0566406 0.5
vt 0.0605469 0.5
vt 0.119141 0.5
vt 0.224609 0.5
vt 0.310547 0.5
vt 0.341797 0.5
vt 0.912109 0.5
vt 0.958984 0.5
vt 0.994141 0.5

# verts
v -1 1.3 1.4
v -1 1.3 -1.5
v -1 2 1.4
v -1 2 -1.5
v -0.9 0 1.4
v -0.9 0 0.8
v -0.9 0 -0.8
v -0.9 0 -1.4
v -0.9 0.1 1.4
v -0.9 0.1 0.8
v -0.9 0.1 -0.8
v -0.9 0.1 -1.4
v -0.9 1.2 1.4
v -0.9 1.2 1.2
v -0.9 1.2 -1.2
v -0.9 1.2 -1.4
v -0.9 1.3 1.5
v -0.9 1.3 1.4
v -0.9 1.3 1.2
v -0.9 1.3 -1.2
v -0.9 1.3 -1.4
v -0.9 2 1.4
v -0.9 2 -1.4
v -0.9 2.1 1.5
v -0.9 2.1 -1.4
v -0.8 0.1 1.3
v -0.8 0.1 0.9
v -0.8 0.1 -0.9
v -0.8 0.1 -1.3
v -0.8 1.1 1.3
v -0.8 1.1 1.2
v -0.8 1.1 -1.2
v -0.8 1.1 -1.3
v -0.8 1.2 1.3
v -0.8 1.2 1.2
v -0.8 1.2 0.9
v -0.8 1.2 -0.9
v -0.8 1.2 -1.2
v -0.8 1.2 -1.3
v -0.8 3.1 1.3
v -0.8 3.1 1
v -0.8 3.2 1.3
v -0.8 3.2 1
v -0.8 3.3 1.2
v -0.8 3.3 1.1
v -0.8 3.4 1.2
v -0.8 3.4 1.1
v -0.8 3.5 1.3
v -0.8 3.5 1
v -0.8 3.6 1.3
v -0.8 3.6 1
v -0.7 2.1 1.5
v -0.7 2.1 0.6
v -0.7 3.1 1.3
v -0.7 3.1 1
v -0.7 3.2 1.3
v -0.7 3.2 1
v -0.7 3.5 1.3
v -0.7 3.5 1
v -0.7 3.6 1.5
v -0.7 3.6 1.3
v -0.7 3.6 1
v -0.7 3.6 0.9
v -0.7 3.6 0.8
v -0.7 3.6 0.6
v -0.7 3.8 0.9
v -0.7 3.8 0.8
v -0.5 2.1 0.6
v -0.5 2.1 0.3
v -0.5 2.2 0.5
v -0.5 2.2 0.3
v -0.5 2.5 1.7
v -0.5 2.5 1.5
v -0.5 2.6 1.8
v -0.5 2.6 1.7
v -0.5 2.9 0.6
v -0.5 2.9 0.5
v -0.5 3.3 1.8
v -0.5 3.3 1.5
v -0.5 3.6 1.3
v -0.5 3.6 0.9
v -0.5 3.7 1.3
v -0.5 3.7 0.9
v -0.4 2.1 0.3
v -0.4 2.1 -1.19209e-07
v -0.4 2.2 0.3
v -0.4 2.2 -1.19209e-07
v -0.4 2.9 0.6
v -0.4 2.9 0.5
v -0.4 3.6 0.9
v -0.4 3.6 0.6
v -0.4 3.6 0.5
v -0.4 3.7 0.9
v -0.4 3.7 0.6
v -0.3 2 -1.4
v -0.3 2 -1.5
v -0.3 2.1 -1.4
v -0.3 2.1 -1.5
v -0.2 1.3 -1.6
v -0.2 1.3 -1.7
v -0.2 1.9 -1.5
v -0.2 1.9 -1.6
v -0.2 2.1 -1.19209e-07
v -0.2 2.1 -0.1
v -0.2 2.1 -1.5
v -0.2 2.1 -1.7
v -0.2 2.2 -1.19209e-07
v -0.2 2.2 -0.1
v -0.2 2.5 1.8
v -0.2 2.5 1.7
v -0.2 2.6 1.8
v -0.2 2.6 1.7
v -0.2 3.6 1.4
v -0.2 3.6 1.3
v -0.2 3.7 1.4
v -0.2 3.7 1.3
v -0.0999999 2.4 1.8
v -0.0999999 2.4 1.7
v -0.0999999 2.5 1.8
v -0.0999999 2.5 1.7
v 0.1 2.1 0.5
v 0.1 2.1 0.4
v 0.1 2.2 0.5
v 0.1 2.2 0.4
v 0.3 0 1.4
v 0.3 0 0.8
v 0.3 0 -0.8
v 0.3 0 -1.4
v 0.3 0.1 1.4
v 0.3 0.1 0.8
v 0.3 0.1 -0.8
v 0.3 0.1 -1.4
v 0.4 0.1 1.3
v 0.4 0.1 0.9
v 0.4 0.1 -0.9
v 0.4 0.1 -1.3
v 0.4 1.1 1.3
v 0.4 1.1 1.2
v 0.4 1.1 -1.2
v 0.4 1.1 -1.3
v 0.4 1.2 1.3
v 0.4 1.2 1.2
v 0.4 1.2 1.1
v 0.4 1.2 0.9
v 0.4 1.2 -0.9
v 0.4 1.2 -1.1
v 0.4 1.2 -1.2
v 0.4 1.2 -1.3
v 0.5 3.6 0.9
v 0.5 3.6 0.8
v 0.5 3.7 0.9
v 0.5 3.7 0.8
v 0.6 3.7 0.9
v 0.6 3.7 0.8
v 0.6 3.8 0.9
v 0.6 3.8 0.8
v -0.6 3.7 0.9
v -0.6 3.7 0.8
v -0.6 3.8 0.9
v -0.6 3.8 0.8
v -0.5 3.6 0.9
v -0.5 3.6 0.8
v -0.5 3.7 0.9
v -0.5 3.7 0.8
v -0.4 0.1 1.3
v -0.4 0.1 0.9
v -0.4 0.1 -0.9
v -0.4 0.1 -1.3
v -0.4 1.1 1.3
v -0.4 1.1 1.2
v -0.4 1.1 -1.2
v -0.4 1.1 -1.3
v -0.4 1.2 1.3
v -0.4 1.2 1.2
v -0.4 1.2 1.1
v -0.4 1.2 0.9
v -0.4 1.2 -0.9
v -0.4 1.2 -1.1
v -0.4 1.2 -1.2
v -0.4 1.2 -1.3
v -0.3 0 1.4
v -0.3 0 0.8
v -0.3 0 -0.8
v -0.3 0 -1.4
v -0.3 0.1 1.4
v -0.3 0.1 0.8
v -0.3 0.1 -0.8
v -0.3 0.1 -1.4
v -0.0999999 2.1 0.5
v -0.0999999 2.1 0.4
v -0.0999999 2.2 0.5
v -0.0999999 2.2 0.4
v 1.19209e-07 2.4 1.8
v 1.19209e-07 2.4 1.7
v 1.19209e-07 2.5 1.7
v 1.19209e-07 2.6 1.8
v 1.19209e-07 2.6 1.7
v 0.2 1.3 -1.6
v 0.2 1.3 -1.7
v 0.2 1.9 -1.5
v 0.2 1.9 -1.6
v 0.2 2.1 -1.19209e-07
v 0.2 2.1 -0.1
v 0.2 2.1 -1.5
v 0.2 2.1 -1.7
v 0.2 2.2 -1.19209e-07
v 0.2 2.2 -0.1
v 0.2 3.6 1.4
v 0.2 3.6 1.3
v 0.2 3.7 1.4
v 0.2 3.7 1.3
v 0.3 2 -1.4
v 0.3 2 -1.5
v 0.3 2.1 -1.4
v 0.3 2.1 -1.5
v 0.4 2.1 0.3
v 0.4 2.1 -1.19209e-07
v 0.4 2.2 0.3
v 0.4 2.2 -1.19209e-07
v 0.4 2.9 0.6
v 0.4 2.9 0.5
v 0.4 3.6 0.9
v 0.4 3.6 0.6
v 0.4 3.6 0.5
v 0.4 3.7 0.9
v 0.4 3.7 0.6
v 0.5 2.1 0.6
v 0.5 2.1 0.3
v 0.5 2.2 0.5
v 0.5 2.2 0.3
v 0.5 2.5 1.7
v 0.5 2.5 1.5
v 0.5 2.6 1.8
v 0.5 2.6 1.7
v 0.5 2.9 0.6
v 0.5 2.9 0.5
v 0.5 3.3 1.8
v 0.5 3.3 1.5
v 0.5 3.6 1.3
v 0.5 3.6 0.9
v 0.5 3.7 1.3
v 0.5 3.7 0.9
v 0.7 2.1 1.5
v 0.7 2.1 0.6
v 0.7 3.1 1.3
v 0.7 3.1 1
v 0.7 3.2 1.3
v 0.7 3.2 1
v 0.7 3.5 1.3
v 0.7 3.5 1
v 0.7 3.6 1.5
v 0.7 3.6 1.3
v 0.7 3.6 1
v 0.7 3.6 0.9
v 0.7 3.6 0.8
v 0.7 3.6 0.6
v 0.7 3.8 0.9
v 0.7 3.8 0.8
v 0.8 0.1 1.3
v 0.8 0.1 0.9
v 0.8 0.1 -0.9
v 0.8 0.1 -1.3
v 0.8 1.1 1.3
v 0.8 1.1 1.2
v 0.8 1.1 -1.2
v 0.8 1.1 -1.3
v 0.8 1.2 1.3
v 0.8 1.2 1.2
v 0.8 1.2 0.9
v 0.8 1.2 -0.9
v 0.8 1.2 -1.2
v 0.8 1.2 -1.3
v 0.8 3.1 1.3
v 0.8 3.1 1
v 0.8 3.2 1.3
v 0.8 3.2 1
v 0.8 3.3 1.2
v 0.8 3.3 1.1
v 0.8 3.4 1.2
v 0.8 3.4 1.1
v 0.8 3.5 1.3
v 0.8 3.5 1
v 0.8 3.6 1.3
v 0.8 3.6 1
v 0.9 0 1.4
v 0.9 0 0.8
v 0.9 0 -0.8
v 0.9 0 -1.4
v 0.9 0.1 1.4
v 0.9 0.1 0.8
v 0.9 0.1 -0.8
v 0.9 0.1 -1.4
v 0.9 1.2 1.4
v 0.9 1.2 1.2
v 0.9 1.2 -1.2
v 0.9 1.2 -1.4
v 0.9 1.3 1.5
v 0.9 1.3 1.4
v 0.9 1.3 1.2
v 0.9 1.3 -1.2
v 0.9 1.3 -1.4
v 0.9 2 1.4
v 0.9 2 -1.4
v 0.9 2.1 1.5
v 0.9 2.1 -1.4
v 1 1.3 1.4
v 1 1.3 -1.5
v 1 2 1.4
v 1 2 -1.5
v -0.5 2.6 1.8
v -0.5 3.3 1.8
v -0.3 2.6 1.8
v -0.3 2.7 1.8
v -0.3 2.8 1.8
v -0.3 2.9 1.8
v -0.3 3 1.8
v -0.3 3.3 1.8
v -0.2 2.5 1.8
v -0.2 2.6 1.8
v -0.2 2.7 1.8
v -0.0999999 2.4 1.8
v -0.0999999 2.5 1.8
v -0.0999999 2.6 1.8
v -0.0999999 2.7 1.8
v -0.0999999 2.8 1.8
v 1.19209e-07 2.4 1.8
v 1.19209e-07 2.6 1.8
v 1.19209e-07 2.7 1.8
v 1.19209e-07 2.8 1.8
v 0.3 2.8 1.8
v 0.3 2.9 1.8
v 0.3 3 1.8
v 0.3 3.3 1.8
v 0.5 2.6 1.8
v 0.5 3.3 1.8
v -0.5 2.5 1.7
v -0.5 2.6 1.7
v -0.3 2.6 1.7
v -0.2 2.5 1.7
v -0.2 2.6 1.7
v 1.19209e-07 2.5 1.7
v 1.19209e-07 2.6 1.7
v 0.5 2.5 1.7
v 0.5 2.6 1.7
v -0.9 1.3 1.5
v -0.9 2.1 1.5
v -0.7 2.1 1.5
v -0.7 3.6 1.5
v -0.5 2.4 1.5
v -0.5 2.5 1.5
v -0.5 3.3 1.5
v -0.4 2.1 1.5
v -0.4 2.4 1.5
v -0.3 1.9 1.5
v -0.3 2.1 1.5
v -0.2 1.3 1.5
v -0.2 1.9 1.5
v 0.2 1.3 1.5
v 0.2 1.9 1.5
v 0.3 1.9 1.5
v 0.3 2.1 1.5
v 0.4 2.1 1.5
v 0.4 2.4 1.5
v 0.5 2.4 1.5
v 0.5 2.5 1.5
v 0.5 3.3 1.5
v 0.7 2.1 1.5
v 0.7 3.6 1.5
v 0.9 1.3 1.5
v 0.9 2.1 1.5
v -1 1.3 1.4
v -1 2 1.4
v -0.9 0 1.4
v -0.9 0.1 1.4
v -0.9 1.2 1.4
v -0.9 1.3 1.4
v -0.9 2 1.4
v -0.3 0 1.4
v -0.3 0.1 1.4
v -0.2 1.3 1.4
v -0.2 3.6 1.4
v -0.2 3.7 1.4
v 0.2 1.3 1.4
v 0.2 3.6 1.4
v 0.2 3.7 1.4
v 0.3 0 1.4
v 0.3 0.1 1.4
v 0.9 0 1.4
v 0.9 0.1 1.4
v 0.9 1.2 1.4
v 0.9 1.3 1.4
v 0.9 2 1.4
v 1 1.3 1.4
v 1 2 1.4
v -0.8 0.1 1.3
v -0.8 1.1 1.3
v -0.8 1.2 1.3
v -0.8 3.1 1.3
v -0.8 3.2 1.3
v -0.8 3.5 1.3
v -0.8 3.6 1.3
v -0.7 3.1 1.3
v -0.7 3.2 1.3
v -0.7 3.5 1.3
v -0.7 3.6 1.3
v -0.5 3.6 1.3
v -0.5 3.7 1.3
v -0.4 0.1 1.3
v -0.4 1.1 1.3
v -0.4 1.2 1.3
v -0.2 3.6 1.3
v -0.2 3.7 1.3
v 0.2 3.6 1.3
v 0.2 3.7 1.3
v 0.4 0.1 1.3
v 0.4 1.1 1.3
v 0.4 1.2 1.3
v 0.5 3.6 1.3
v 0.5 3.7 1.3
v 0.7 3.1 1.3
v 0.7 3.2 1.3
v 0.7 3.5 1.3
v 0.7 3.6 1.3
v 0.8 0.1 1.3
v 0.8 1.1 1.3
v 0.8 1.2 1.3
v 0.8 3.1 1.3
v 0.8 3.2 1.3
v 0.8 3.5 1.3
v 0.8 3.6 1.3
v -0.7 3.6 0.9
v -0.7 3.8 0.9
v -0.6 3.7 0.9
v -0.6 3.8 0.9
v -0.5 3.6 0.9
v -0.5 3.7 0.9
v 0.5 3.6 0.9
v 0.5 3.7 0.9
v 0.6 3.7 0.9
v 0.6 3.8 0.9
v 0.7 3.6 0.9
v 0.7 3.8 0.9
v -0.0999999 2.1 0.4
v -0.0999999 2.2 0.4
v 0.1 2.1 0.4
v 0.1 2.2 0.4
v -0.9 0 -0.8
v -0.9 0.1 -0.8
v -0.3 0 -0.8
v -0.3 0.1 -0.8
v 0.3 0 -0.8
v 0.3 0.1 -0.8
v 0.9 0 -0.8
v 0.9 0.1 -0.8
v -0.8 0.1 -0.9
v -0.8 1.2 -0.9
v -0.4 0.1 -0.9
v -0.4 1.2 -0.9
v 0.4 0.1 -0.9
v 0.4 1.2 -0.9
v 0.8 0.1 -0.9
v 0.8 1.2 -0.9
v -0.2 1.3 -1.6
v -0.2 1.9 -1.6
v 0.2 1.3 -1.6
v 0.2 1.9 -1.6
v -0.0999999 2.4 1.7
v -0.0999999 2.5 1.7
v 1.19209e-07 2.4 1.7
v 1.19209e-07 2.5 1.7
v -0.8 3.1 1
v -0.8 3.2 1
v -0.8 3.5 1
v -0.8 3.6 1
v -0.7 3.1 1
v -0.7 3.2 1
v -0.7 3.5 1
v -0.7 3.6 1
v 0.7 3.1 1
v 0.7 3.2 1
v 0.7 3.5 1
v 0.7 3.6 1
v 0.8 3.1 1
v 0.8 3.2 1
v 0.8 3.5 1
v 0.8 3.6 1
v -0.8 0.1 0.9
v -0.8 1.2 0.9
v -0.5 3.6 0.9
v -0.5 3.7 0.9
v -0.4 0.1 0.9
v -0.4 1.2 0.9
v -0.4 3.6 0.9
v -0.4 3.7 0.9
v 0.4 0.1 0.9
v 0.4 1.2 0.9
v 0.4 3.6 0.9
v 0.4 3.7 0.9
v 0.5 3.6 0.9
v 0.5 3.7 0.9
v 0.8 0.1 0.9
v 0.8 1.2 0.9
v -0.9 0 0.8
v -0.9 0.1 0.8
v -0.7 3.6 0.8
v -0.7 3.8 0.8
v -0.6 3.7 0.8
v -0.6 3.8 0.8
v -0.5 3.6 0.8
v -0.5 3.7 0.8
v -0.3 0 0.8
v -0.3 0.1 0.8
v 0.3 0 0.8
v 0.3 0.1 0.8
v 0.5 3.6 0.8
v 0.5 3.7 0.8
v 0.6 3.7 0.8
v 0.6 3.8 0.8
v 0.7 3.6 0.8
v 0.7 3.8 0.8
v 0.9 0 0.8
v 0.9 0.1 0.8
v -0.7 2.1 0.6
v -0.7 3.6 0.6
v -0.5 2.1 0.6
v -0.5 2.9 0.6
v -0.4 2.9 0.6
v -0.4 3.6 0.6
v -0.4 3.7 0.6
v 0.4 2.9 0.6
v 0.4 3.6 0.6
v 0.4 3.7 0.6
v 0.5 2.1 0.6
v 0.5 2.9 0.6
v 0.7 2.1 0.6
v 0.7 3.6 0.6
v -0.5 2.2 0.5
v -0.5 2.9 0.5
v -0.4 2.9 0.5
v -0.4 3.6 0.5
v -0.0999999 2.1 0.5
v -0.0999999 2.2 0.5
v 0.1 2.1 0.5
v 0.1 2.2 0.5
v 0.4 2.9 0.5
v 0.4 3.6 0.5
v 0.5 2.2 0.5
v 0.5 2.9 0.5
v -0.5 2.1 0.3
v -0.5 2.2 0.3
v -0.4 2.1 0.3
v -0.4 2.2 0.3
v 0.4 2.1 0.3
v 0.4 2.2 0.3
v 0.5 2.1 0.3
v 0.5 2.2 0.3
v -0.4 2.1 -1.19209e-07
v -0.4 2.2 -1.19209e-07
v -0.2 2.1 -1.19209e-07
v -0.2 2.2 -1.19209e-07
v 0.2 2.1 -1.19209e-07
v 0.2 2.2 -1.19209e-07
v 0.4 2.1 -1.19209e-07
v 0.4 2.2 -1.19209e-07
v -0.2 2.1 -0.1
v -0.2 2.2 -0.1
v 0.2 2.1 -0.1
v 0.2 2.2 -0.1
v -0.8 0.1 -1.3
v -0.8 1.1 -1.3
v -0.8 1.2 -1.3
v -0.4 0.1 -1.3
v -0.4 1.1 -1.3
v -0.4 1.2 -1.3
v 0.4 0.1 -1.3
v 0.4 1.1 -1.3
v 0.4 1.2 -1.3
v 0.8 0.1 -1.3
v 0.8 1.1 -1.3
v 0.8 1.2 -1.3
v -0.9 0 -1.4
v -0.9 0.1 -1.4
v -0.9 1.2 -1.4
v -0.9 1.3 -1.4
v -0.9 2 -1.4
v -0.9 2.1 -1.4
v -0.3 0 -1.4
v -0.3 0.1 -1.4
v -0.3 2 -1.4
v -0.3 2.1 -1.4
v -0.2 1.3 -1.4
v 0.2 1.3 -1.4
v 0.3 0 -1.4
v 0.3 0.1 -1.4
v 0.3 2 -1.4
v 0.3 2.1 -1.4
v 0.9 0 -1.4
v 0.9 0.1 -1.4
v 0.9 1.2 -1.4
v 0.9 1.3 -1.4
v 0.9 2 -1.4
v 0.9 2.1 -1.4
v -1 1.3 -1.5
v -1 2 -1.5
v -0.3 1.9 -1.5
v -0.3 2 -1.5
v -0.3 2.1 -1.5
v -0.2 1.3 -1.5
v -0.2 1.9 -1.5
v -0.2 2.1 -1.5
v 0.2 1.3 -1.5
v 0.2 1.9 -1.5
v 0.2 2.1 -1.5
v 0.3 1.9 -1.5
v 0.3 2 -1.5
v 0.3 2.1 -1.5
v 1 1.3 -1.5
v 1 2 -1.5
v -0.2 1.3 -1.7
v -0.2 2.1 -1.7
v 0.2 1.3 -1.7
v 0.2 2.1 -1.7
v -0.9 0 1.4
v -0.3 0 1.4
v 0.3 0 1.4
v 0.9 0 1.4
v -0.8 0 1.3
v -0.4 0 1.3
v 0.4 0 1.3
v 0.8 0 1.3
v -0.8 0 0.9
v -0.4 0 0.9
v 0.4 0 0.9
v 0.8 0 0.9
v -0.9 0 0.8
v -0.3 0 0.8
v 0.3 0 0.8
v 0.9 0 0.8
v -0.9 0 -0.8
v -0.3 0 -0.8
v 0.3 0 -0.8
v 0.9 0 -0.8
v -0.8 0 -0.9
v -0.4 0 -0.9
v 0.4 0 -0.9
v 0.8 0 -0.9
v -0.8 0 -1.3
v -0.4 0 -1.3
v 0.4 0 -1.3
v 0.8 0 -1.3
v -0.9 0 -1.4
v -0.3 0 -1.4
v 0.3 0 -1.4
v 0.9 0 -1.4
v -0.9 1.2 1.4
v 0.9 1.2 1.4
v -0.8 1.2 1.3
v -0.4 1.2 1.3
v 0.4 1.2 1.3
v 0.8 1.2 1.3
v -0.9 1.2 1.2
v -0.8 1.2 1.2
v -0.4 1.2 1.2
v 0.4 1.2 1.2
v 0.8 1.2 1.2
v 0.9 1.2 1.2
v -0.4 1.2 1.1
v -0.2 1.2 1.1
v 0.2 1.2 1.1
v 0.4 1.2 1.1
v -0.2 1.2 1
v 0.2 1.2 1
v -0.8 1.2 0.9
v -0.4 1.2 0.9
v 0.4 1.2 0.9
v 0.8 1.2 0.9
v -0.8 1.2 -0.9
v -0.4 1.2 -0.9
v 0.4 1.2 -0.9
v 0.8 1.2 -0.9
v -0.2 1.2 -1
v 0.2 1.2 -1
v -0.4 1.2 -1.1
v -0.2 1.2 -1.1
v 0.2 1.2 -1.1
v 0.4 1.2 -1.1
v -0.9 1.2 -1.2
v -0.8 1.2 -1.2
v -0.4 1.2 -1.2
v 0.4 1.2 -1.2
v 0.8 1.2 -1.2
v 0.9 1.2 -1.2
v -0.8 1.2 -1.3
v -0.4 1.2 -1.3
v 0.4 1.2 -1.3
v 0.8 1.2 -1.3
v -0.9 1.2 -1.4
v 0.9 1.2 -1.4
v -0.9 1.3 1.5
v -0.2 1.3 1.5
v 0.2 1.3 1.5
v 0.9 1.3 1.5
v -1 1.3 1.4
v -0.9 1.3 1.4
v -0.2 1.3 1.4
v 0.2 1.3 1.4
v 0.9 1.3 1.4
v 1 1.3 1.4
v -0.9 1.3 1.2
v 0.9 1.3 1.2
v -0.9 1.3 -1.2
v 0.9 1.3 -1.2
v -0.9 1.3 -1.4
v -0.2 1.3 -1.4
v 0.2 1.3 -1.4
v 0.9 1.3 -1.4
v -1 1.3 -1.5
v -0.2 1.3 -1.5
v 0.2 1.3 -1.5
v 1 1.3 -1.5
v -0.2 1.3 -1.6
v 0.2 1.3 -1.6
v -0.2 1.3 -1.7
v 0.2 1.3 -1.7
v -0.2 1.9 -1.5
v 0.2 1.9 -1.5
v -0.2 1.9 -1.6
v 0.2 1.9 -1.6
v -0.0999999 2.4 1.8
v 1.19209e-07 2.4 1.8
v -0.0999999 2.4 1.7
v 1.19209e-07 2.4 1.7
v -0.2 2.5 1.8
v -0.0999999 2.5 1.8
v -0.5 2.5 1.7
v -0.2 2.5 1.7
v -0.0999999 2.5 1.7
v 1.19209e-07 2.5 1.7
v 0.5 2.5 1.7
v -0.5 2.5 1.5
v 0.5 2.5 1.5
v -0.5 2.6 1.8
v -0.3 2.6 1.8
v -0.2 2.6 1.8
v 1.19209e-07 2.6 1.8
v 0.5 2.6 1.8
v -0.5 2.6 1.7
v -0.3 2.6 1.7
v -0.2 2.6 1.7
v 1.19209e-07 2.6 1.7
v 0.5 2.6 1.7
v -0.8 3.1 1.3
v -0.7 3.1 1.3
v 0.7 3.1 1.3
v 0.8 3.1 1.3
v -0.8 3.1 1
v -0.7 3.1 1
v 0.7 3.1 1
v 0.8 3.1 1
v -0.9 0.1 1.4
v -0.3 0.1 1.4
v 0.3 0.1 1.4
v 0.9 0.1 1.4
v -0.8 0.1 1.3
v -0.4 0.1 1.3
v 0.4 0.1 1.3
v 0.8 0.1 1.3
v -0.8 0.1 0.9
v -0.4 0.1 0.9
v 0.4 0.1 0.9
v 0.8 0.1 0.9
v -0.9 0.1 0.8
v -0.3 0.1 0.8
v 0.3 0.1 0.8
v 0.9 0.1 0.8
v -0.9 0.1 -0.8
v -0.3 0.1 -0.8
v 0.3 0.1 -0.8
v 0.9 0.1 -0.8
v -0.8 0.1 -0.9
v -0.4 0.1 -0.9
v 0.4 0.1 -0.9
v 0.8 0.1 -0.9
v -0.8 0.1 -1.3
v -0.4 0.1 -1.3
v 0.4 0.1 -1.3
v 0.8 0.1 -1.3
v -0.9 0.1 -1.4
v -0.3 0.1 -1.4
v 0.3 0.1 -1.4
v 0.9 0.1 -1.4
v -1 2 1.4
v -0.9 2 1.4
v 0.9 2 1.4
v 1 2 1.4
v -0.9 2 -1.4
v -0.3 2 -1.4
v 0.3 2 -1.4
v 0.9 2 -1.4
v -1 2 -1.5
v -0.3 2 -1.5
v 0.3 2 -1.5
v 1 2 -1.5
v -0.9 2.1 1.5
v -0.7 2.1 1.5
v 0.7 2.1 1.5
v 0.9 2.1 1.5
v -0.7 2.1 0.6
v -0.5 2.1 0.6
v 0.5 2.1 0.6
v 0.7 2.1 0.6
v -0.0999999 2.1 0.5
v 0.1 2.1 0.5
v -0.0999999 2.1 0.4
v 0.1 2.1 0.4
v -0.5 2.1 0.3
v -0.4 2.1 0.3
v 0.4 2.1 0.3
v 0.5 2.1 0.3
v -0.4 2.1 -1.19209e-07
v -0.2 2.1 -1.19209e-07
v 0.2 2.1 -1.19209e-07
v 0.4 2.1 -1.19209e-07
v -0.2 2.1 -0.1
v 0.2 2.1 -0.1
v -0.9 2.1 -1.4
v -0.3 2.1 -1.4
v 0.3 2.1 -1.4
v 0.9 2.1 -1.4
v -0.3 2.1 -1.5
v -0.2 2.1 -1.5
v 0.2 2.1 -1.5
v 0.3 2.1 -1.5
v -0.2 2.1 -1.7
v 0.2 2.1 -1.7
v -0.5 2.2 0.5
v -0.0999999 2.2 0.5
v 0.1 2.2 0.5
v 0.5 2.2 0.5
v -0.0999999 2.2 0.4
v 0.1 2.2 0.4
v -0.5 2.2 0.3
v -0.4 2.2 0.3
v 0.4 2.2 0.3
v 0.5 2.2 0.3
v -0.4 2.2 -1.19209e-07
v -0.2 2.2 -1.19209e-07
v 0.2 2.2 -1.19209e-07
v 0.4 2.2 -1.19209e-07
v -0.2 2.2 -0.1
v 0.2 2.2 -0.1
v -0.5 2.9 0.6
v -0.4 2.9 0.6
v 0.4 2.9 0.6
v 0.5 2.9 0.6
v -0.5 2.9 0.5
v -0.4 2.9 0.5
v 0.4 2.9 0.5
v 0.5 2.9 0.5
v -0.5 3.3 1.8
v -0.3 3.3 1.8
v 0.3 3.3 1.8
v 0.5 3.3 1.8
v -0.3 3.3 1.6
v 0.3 3.3 1.6
v -0.5 3.3 1.5
v 0.5 3.3 1.5
v -0.7 3.6 1.5
v 0.7 3.6 1.5
v -0.2 3.6 1.4
v 0.2 3.6 1.4
v -0.8 3.6 1.3
v -0.7 3.6 1.3
v -0.5 3.6 1.3
v -0.2 3.6 1.3
v 0.2 3.6 1.3
v 0.5 3.6 1.3
v 0.7 3.6 1.3
v 0.8 3.6 1.3
v -0.8 3.6 1
v -0.7 3.6 1
v 0.7 3.6 1
v 0.8 3.6 1
v -0.7 3.6 0.9
v -0.5 3.6 0.9
v -0.4 3.6 0.9
v 0.4 3.6 0.9
v 0.5 3.6 0.9
v 0.7 3.6 0.9
v -0.7 3.6 0.8
v -0.5 3.6 0.8
v 0.5 3.6 0.8
v 0.7 3.6 0.8
v -0.7 3.6 0.6
v -0.4 3.6 0.6
v 0.4 3.6 0.6
v 0.7 3.6 0.6
v -0.4 3.6 0.5
v 0.4 3.6 0.5
v -0.2 3.7 1.4
v 0.2 3.7 1.4
v -0.5 3.7 1.3
v -0.2 3.7 1.3
v 0.2 3.7 1.3
v 0.5 3.7 1.3
v -0.6 3.7 0.9
v -0.5 3.7 0.9
v -0.4 3.7 0.9
v 0.4 3.7 0.9
v 0.5 3.7 0.9
v 0.6 3.7 0.9
v -0.6 3.7 0.8
v -0.5 3.7 0.8
v 0.5 3.7 0.8
v 0.6 3.7 0.8
v -0.4 3.7 0.6
v 0.4 3.7 0.6
v -0.7 3.8 0.9
v -0.6 3.8 0.9
v 0.6 3.8 0.9
v 0.7 3.8 0.9
v -0.7 3.8 0.8
v -0.6 3.8 0.8
v 0.6 3.8 0.8
v 0.7 3.8 0.8

# faces
f 3/6/1 2/6/1 1/6/1
f 4/6/1 2/6/1 3/6/1
f 9/9/1 6/9/1 5/9/1
f 10/9/1 6/9/1 9/9/1
f 11/9/1 8/9/1 7/9/1
f 12/9/1 8/9/1 11/9/1
f 18/3/1 14/3/1 13/3/1
f 19/6/1 15/6/1 14/6/1
f 19/3/1 14/3/1 18/3/1
f 20/3/1 16/3/1 15/3/1
f 20/6/1 15/6/1 19/6/1
f 21/3/1 16/3/1 20/3/1
f 22/6/1 18/6/1 17/6/1
f 24/6/1 22/6/1 17/6/1
f 24/6/1 23/6/1 22/6/1
f 25/6/1 23/6/1 24/6/1
f 30/4/1 27/4/1 26/4/1
f 31/4/1 27/4/1 30/4/1
f 32/4/1 29/4/1 28/4/1
f 33/4/1 29/4/1 32/4/1
f 34/3/1 31/3/1 30/3/1
f 35/4/1 27/4/1 31/4/1
f 35/3/1 31/3/1 34/3/1
f 36/4/1 27/4/1 35/4/1
f 37/4/1 32/4/1 28/4/1
f 38/3/1 33/3/1 32/3/1
f 38/4/1 32/4/1 37/4/1
f 39/3/1 33/3/1 38/3/1
f 42/9/1 41/9/1 40/9/1
f 43/9/1 41/9/1 42/9/1
f 44/8/1 43/8/1 42/8/1
f 45/8/1 43/8/1 44/8/1
f 46/8/1 44/8/1 42/8/1
f 46/9/1 45/9/1 44/9/1
f 47/8/1 43/8/1 45/8/1
f 47/9/1 45/9/1 46/9/1
f 48/8/1 46/8/1 42/8/1
f 48/8/1 47/8/1 46/8/1
f 49/8/1 43/8/1 47/8/1
f 49/8/1 47/8/1 48/8/1
f 50/9/1 49/9/1 48/9/1
f 51/9/1 49/9/1 50/9/1
f 54/6/1 53/6/1 52/6/1
f 55/6/1 53/6/1 54/6/1
f 56/6/1 54/6/1 52/6/1
f 57/6/1 53/6/1 55/6/1
f 58/6/1 56/6/1 52/6/1
f 59/6/1 53/6/1 57/6/1
f 60/6/1 58/6/1 52/6/1
f 61/6/1 58/6/1 60/6/1
f 62/6/1 53/6/1 59/6/1
f 63/6/1 53/6/1 62/6/1
f 64/6/1 53/6/1 63/6/1
f 65/6/1 53/6/1 64/6/1
f 66/3/1 64/3/1 63/3/1
f 67/3/1 64/3/1 66/3/1
f 70/9/1 69/9/1 68/9/1
f 71/9/1 69/9/1 70/9/1
f 75/6/1 73/6/1 72/6/1
f 76/9/1 70/9/1 68/9/1
f 77/9/1 70/9/1 76/9/1
f 78/6/1 75/6/1 74/6/1
f 79/6/1 73/6/1 75/6/1
f 79/6/1 75/6/1 78/6/1
f 82/9/1 81/9/1 80/9/1
f 83/9/1 81/9/1 82/9/1
f 86/9/1 85/9/1 84/9/1
f 87/9/1 85/9/1 86/9/1
f 91/9/1 89/9/1 88/9/1
f 92/9/1 89/9/1 91/9/1
f 93/9/1 91/9/1 90/9/1
f 94/9/1 91/9/1 93/9/1
f 97/3/1 96/3/1 95/3/1
f 98/3/1 96/3/1 97/3/1
f 102/3/1 100/3/1 99/3/1
f 105/3/1 102/3/1 101/3/1
f 106/3/1 100/3/1 102/3/1
f 106/3/1 102/3/1 105/3/1
f 107/9/1 104/9/1 103/9/1
f 108/9/1 104/9/1 107/9/1
f 111/1/1 110/1/1 109/1/1
f 112/1/1 110/1/1 111/1/1
f 115/9/1 114/9/1 113/9/1
f 116/9/1 114/9/1 115/9/1
f 119/2/1 118/2/1 117/2/1
f 120/2/1 118/2/1 119/2/1
f 123/9/1 122/9/1 121/9/1
f 124/9/1 122/9/1 123/9/1
f 129/9/1 126/9/1 125/9/1
f 130/9/1 126/9/1 129/9/1
f 131/9/1 128/9/1 127/9/1
f 132/9/1 128/9/1 131/9/1
f 137/4/1 134/4/1 133/4/1
f 138/4/1 134/4/1 137/4/1
f 139/4/1 136/4/1 135/4/1
f 140/4/1 136/4/1 139/4/1
f 141/3/1 138/3/1 137/3/1
f 142/4/1 134/4/1 138/4/1
f 142/3/1 138/3/1 141/3/1
f 143/4/1 134/4/1 142/4/1
f 144/4/1 134/4/1 143/4/1
f 145/4/1 139/4/1 135/4/1
f 146/4/1 139/4/1 145/4/1
f 147/3/1 140/3/1 139/3/1
f 147/4/1 139/4/1 146/4/1
f 148/3/1 140/3/1 147/3/1
f 151/3/1 150/3/1 149/3/1
f 152/3/1 150/3/1 151/3/1
f 155/3/1 154/3/1 153/3/1
f 156/3/1 154/3/1 155/3/1
f 157/3/2 158/3/2 159/3/2
f 159/3/2 158/3/2 160/3/2
f 161/3/2 162/3/2 163/3/2
f 163/3/2 162/3/2 164/3/2
f 165/4/2 166/4/2 169/4/2
f 169/4/2 166/4/2 170/4/2
f 167/4/2 168/4/2 171/4/2
f 171/4/2 168/4/2 172/4/2
f 169/3/2 170/3/2 173/3/2
f 170/4/2 166/4/2 174/4/2
f 173/3/2 170/3/2 174/3/2
f 174/4/2 166/4/2 175/4/2
f 175/4/2 166/4/2 176/4/2
f 167/4/2 171/4/2 177/4/2
f 177/4/2 171/4/2 178/4/2
f 171/3/2 172/3/2 179/3/2
f 178/4/2 171/4/2 179/4/2
f 179/3/2 172/3/2 180/3/2
f 181/9/2 182/9/2 185/9/2
f 185/9/2 182/9/2 186/9/2
f 183/9/2 184/9/2 187/9/2
f 187/9/2 184/9/2 188/9/2
f 189/9/2 190/9/2 191/9/2
f 191/9/2 190/9/2 192/9/2
f 193/2/2 194/2/2 195/2/2
f 193/2/2 195/2/2 196/2/2
f 196/2/2 195/2/2 197/2/2
f 198/3/2 199/3/2 201/3/2
f 200/3/2 201/3/2 204/3/2
f 201/3/2 199/3/2 205/3/2
f 204/3/2 201/3/2 205/3/2
f 202/9/2 203/9/2 206/9/2
f 206/9/2 203/9/2 207/9/2
f 208/9/2 209/9/2 210/9/2
f 210/9/2 209/9/2 211/9/2
f 212/3/2 213/3/2 214/3/2
f 214/3/2 213/3/2 215/3/2
f 216/9/2 217/9/2 218/9/2
f 218/9/2 217/9/2 219/9/2
f 220/9/2 221/9/2 223/9/2
f 223/9/2 221/9/2 224/9/2
f 222/9/2 223/9/2 225/9/2
f 225/9/2 223/9/2 226/9/2
f 227/9/2 228/9/2 229/9/2
f 229/9/2 228/9/2 230/9/2
f 231/6/2 232/6/2 234/6/2
f 227/9/2 229/9/2 235/9/2
f 235/9/2 229/9/2 236/9/2
f 233/6/2 234/6/2 237/6/2
f 234/6/2 232/6/2 238/6/2
f 237/6/2 234/6/2 238/6/2
f 239/9/2 240/9/2 241/9/2
f 241/9/2 240/9/2 242/9/2
f 243/6/2 244/6/2 245/6/2
f 245/6/2 244/6/2 246/6/2
f 243/6/2 245/6/2 247/6/2
f 246/6/2 244/6/2 248/6/2
f 243/6/2 247/6/2 249/6/2
f 248/6/2 244/6/2 250/6/2
f 243/6/2 249/6/2 251/6/2
f 251/6/2 249/6/2 252/6/2
f 250/6/2 244/6/2 253/6/2
f 253/6/2 244/6/2 254/6/2
f 254/6/2 244/6/2 255/6/2
f 255/6/2 244/6/2 256/6/2
f 254/3/2 255/3/2 257/3/2
f 257/3/2 255/3/2 258/3/2
f 259/4/2 260/4/2 263/4/2
f 263/4/2 260/4/2 264/4/2
f 261/4/2 262/4/2 265/4/2
f 265/4/2 262/4/2 266/4/2
f 263/3/2 264/3/2 267/3/2
f 264/4/2 260/4/2 268/4/2
f 267/3/2 264/3/2 268/3/2
f 268/4/2 260/4/2 269/4/2
f 261/4/2 265/4/2 270/4/2
f 265/3/2 266/3/2 271/3/2
f 270/4/2 265/4/2 271/4/2
f 271/3/2 266/3/2 272/3/2
f 273/5/2 274/5/2 275/5/2
f 275/5/2 274/5/2 276/5/2
f 275/8/2 276/8/2 277/8/2
f 277/8/2 276/8/2 278/8/2
f 275/8/2 277/8/2 279/8/2
f 277/9/2 278/9/2 279/9/2
f 278/8/2 276/8/2 280/8/2
f 279/9/2 278/9/2 280/9/2
f 275/8/2 279/8/2 281/8/2
f 279/8/2 280/8/2 281/8/2
f 280/8/2 276/8/2 282/8/2
f 281/8/2 280/8/2 282/8/2
f 281/5/2 282/5/2 283/5/2
f 283/5/2 282/5/2 284/5/2
f 285/9/2 286/9/2 289/9/2
f 289/9/2 286/9/2 290/9/2
f 287/9/2 288/9/2 291/9/2
f 291/9/2 288/9/2 292/9/2
f 293/3/2 294/3/2 298/3/2
f 294/6/2 295/6/2 299/6/2
f 298/3/2 294/3/2 299/3/2
f 295/3/2 296/3/2 300/3/2
f 299/6/2 295/6/2 300/6/2
f 300/3/2 296/3/2 301/3/2
f 297/6/2 298/6/2 302/6/2
f 297/6/2 302/6/2 304/6/2
f 302/6/2 303/6/2 304/6/2
f 304/6/2 303/6/2 305/6/2
f 306/6/2 307/6/2 308/6/2
f 308/6/2 307/6/2 309/6/2
f 312/6/3 311/6/3 310/6/3
f 313/6/3 311/6/3 312/6/3
f 314/6/3 311/6/3 313/6/3
f 315/6/3 311/6/3 314/6/3
f 316/6/3 311/6/3 315/6/3
f 317/6/3 311/6/3 316/6/3
f 319/2/3 313/2/3 312/2/3
f 320/1/3 314/1/3 313/1/3
f 320/2/3 313/2/3 319/2/3
f 322/1/3 319/1/3 318/1/3
f 322/1/3 320/1/3 319/1/3
f 323/1/3 320/1/3 322/1/3
f 324/1/3 314/1/3 320/1/3
f 324/1/3 320/1/3 323/1/3
f 325/7/3 315/7/3 314/7/3
f 325/1/3 314/1/3 324/1/3
f 326/2/3 323/2/3 322/2/3
f 326/2/3 322/2/3 321/2/3
f 327/1/3 324/1/3 323/1/3
f 327/2/3 323/2/3 326/2/3
f 328/2/3 325/2/3 324/2/3
f 328/1/3 324/1/3 327/1/3
f 329/7/3 315/7/3 325/7/3
f 329/2/3 325/2/3 328/2/3
f 330/6/3 328/6/3 327/6/3
f 330/7/3 315/7/3 329/7/3
f 330/6/3 329/6/3 328/6/3
f 331/6/3 316/6/3 315/6/3
f 331/7/3 315/7/3 330/7/3
f 332/9/3 317/9/3 316/9/3
f 332/6/3 316/6/3 331/6/3
f 333/9/3 317/9/3 332/9/3
f 334/6/3 330/6/3 327/6/3
f 334/6/3 331/6/3 330/6/3
f 334/6/3 333/6/3 332/6/3
f 334/6/3 332/6/3 331/6/3
f 335/6/3 333/6/3 334/6/3
f 338/6/3 337/6/3 336/6/3
f 339/6/3 338/6/3 336/6/3
f 340/6/3 338/6/3 339/6/3
f 343/6/3 342/6/3 341/6/3
f 344/6/3 342/6/3 343/6/3
f 347/6/3 346/6/3 345/6/3
f 349/6/3 348/6/3 347/6/3
f 350/6/3 348/6/3 349/6/3
f 351/6/3 348/6/3 350/6/3
f 352/6/3 347/6/3 345/6/3
f 352/6/3 349/6/3 347/6/3
f 353/3/3 350/3/3 349/3/3
f 353/6/3 349/6/3 352/6/3
f 354/6/3 352/6/3 345/6/3
f 355/3/3 353/3/3 352/3/3
f 355/6/3 352/6/3 354/6/3
f 356/6/3 354/6/3 345/6/3
f 357/3/3 355/3/3 354/3/3
f 357/6/3 354/6/3 356/6/3
f 358/3/3 357/3/3 356/3/3
f 359/3/3 355/3/3 357/3/3
f 359/3/3 357/3/3 358/3/3
f 360/6/3 359/6/3 358/6/3
f 360/3/3 355/3/3 359/3/3
f 361/3/3 353/3/3 355/3/3
f 361/3/3 355/3/3 360/3/3
f 362/6/3 361/6/3 360/6/3
f 362/3/3 353/3/3 361/3/3
f 363/3/3 350/3/3 353/3/3
f 363/3/3 353/3/3 362/3/3
f 364/6/3 363/6/3 362/6/3
f 364/3/3 350/3/3 363/3/3
f 365/3/3 350/3/3 364/3/3
f 366/6/3 348/6/3 351/6/3
f 367/6/3 365/6/3 364/6/3
f 367/6/3 366/6/3 365/6/3
f 367/6/3 362/6/3 360/6/3
f 367/6/3 364/6/3 362/6/3
f 368/6/3 348/6/3 366/6/3
f 368/6/3 366/6/3 367/6/3
f 369/6/3 367/6/3 360/6/3
f 369/6/3 360/6/3 358/6/3
f 370/6/3 367/6/3 369/6/3
f 376/6/3 372/6/3 371/6/3
f 377/6/3 372/6/3 376/6/3
f 378/9/3 374/9/3 373/9/3
f 379/9/3 374/9/3 378/9/3
f 380/3/3 376/3/3 375/3/3
f 383/3/3 380/3/3 375/3/3
f 384/9/3 382/9/3 381/9/3
f 385/9/3 382/9/3 384/9/3
f 388/9/3 387/9/3 386/9/3
f 389/9/3 387/9/3 388/9/3
f 390/3/3 383/3/3 375/3/3
f 391/3/3 383/3/3 390/3/3
f 393/6/3 392/6/3 391/6/3
f 394/6/3 392/6/3 393/6/3
f 402/9/3 399/9/3 398/9/3
f 403/8/3 400/8/3 399/8/3
f 403/9/3 399/9/3 402/9/3
f 404/9/3 401/9/3 400/9/3
f 404/8/3 400/8/3 403/8/3
f 405/9/3 401/9/3 404/9/3
f 408/4/3 396/4/3 395/4/3
f 409/3/3 397/3/3 396/3/3
f 409/4/3 396/4/3 408/4/3
f 410/3/3 397/3/3 409/3/3
f 411/9/3 407/9/3 406/9/3
f 412/9/3 407/9/3 411/9/3
f 418/9/3 414/9/3 413/9/3
f 419/9/3 414/9/3 418/9/3
f 424/4/3 416/4/3 415/4/3
f 425/3/3 417/3/3 416/3/3
f 425/4/3 416/4/3 424/4/3
f 426/3/3 417/3/3 425/3/3
f 427/5/3 421/5/3 420/5/3
f 428/8/3 422/8/3 421/8/3
f 428/5/3 421/5/3 427/5/3
f 429/5/3 423/5/3 422/5/3
f 429/8/3 422/8/3 428/8/3
f 430/5/3 423/5/3 429/5/3
f 433/3/3 432/3/3 431/3/3
f 434/3/3 432/3/3 433/3/3
f 435/3/3 433/3/3 431/3/3
f 436/3/3 433/3/3 435/3/3
f 439/3/3 438/3/3 437/3/3
f 441/3/3 439/3/3 437/3/3
f 441/3/3 440/3/3 439/3/3
f 442/3/3 440/3/3 441/3/3
f 445/9/3 444/9/3 443/9/3
f 446/9/3 444/9/3 445/9/3
f 449/9/3 448/9/3 447/9/3
f 450/9/3 448/9/3 449/9/3
f 453/9/3 452/9/3 451/9/3
f 454/9/3 452/9/3 453/9/3
f 457/4/3 456/4/3 455/4/3
f 458/4/3 456/4/3 457/4/3
f 461/4/3 460/4/3 459/4/3
f 462/4/3 460/4/3 461/4/3
f 465/3/3 464/3/3 463/3/3
f 466/3/3 464/3/3 465/3/3
f 467/2/4 468/2/4 469/2/4
f 469/2/4 468/2/4 470/2/4
f 471/9/4 472/9/4 475/9/4
f 472/8/4 473/8/4 476/8/4
f 475/9/4 472/9/4 476/9/4
f 473/9/4 474/9/4 477/9/4
f 476/8/4 473/8/4 477/8/4
f 477/9/4 474/9/4 478/9/4
f 479/5/4 480/5/4 483/5/4
f 480/8/4 481/8/4 484/8/4
f 483/5/4 480/5/4 484/5/4
f 481/5/4 482/5/4 485/5/4
f 484/8/4 481/8/4 485/8/4
f 485/5/4 482/5/4 486/5/4
f 487/4/4 488/4/4 491/4/4
f 491/4/4 488/4/4 492/4/4
f 489/9/4 490/9/4 493/9/4
f 493/9/4 490/9/4 494/9/4
f 497/9/4 498/9/4 499/9/4
f 499/9/4 498/9/4 500/9/4
f 495/4/4 496/4/4 501/4/4
f 501/4/4 496/4/4 502/4/4
f 505/3/4 506/3/4 507/3/4
f 507/3/4 506/3/4 508/3/4
f 505/3/4 507/3/4 509/3/4
f 509/3/4 507/3/4 510/3/4
f 503/9/4 504/9/4 511/9/4
f 511/9/4 504/9/4 512/9/4
f 515/3/4 516/3/4 517/3/4
f 515/3/4 517/3/4 519/3/4
f 517/3/4 518/3/4 519/3/4
f 519/3/4 518/3/4 520/3/4
f 513/9/4 514/9/4 521/9/4
f 521/9/4 514/9/4 522/9/4
f 523/6/4 524/6/4 525/6/4
f 525/6/4 524/6/4 526/6/4
f 526/6/4 524/6/4 527/6/4
f 527/6/4 524/6/4 528/6/4
f 528/9/4 529/9/4 531/9/4
f 531/9/4 529/9/4 532/9/4
f 530/6/4 531/6/4 534/6/4
f 533/6/4 534/6/4 535/6/4
f 534/6/4 531/6/4 536/6/4
f 535/6/4 534/6/4 536/6/4
f 537/9/4 538/9/4 539/9/4
f 537/9/4 539/9/4 542/9/4
f 539/9/4 540/9/4 542/9/4
f 541/9/4 542/9/4 543/9/4
f 542/9/4 540/9/4 544/9/4
f 543/9/4 542/9/4 544/9/4
f 544/9/4 540/9/4 545/9/4
f 545/9/4 540/9/4 546/9/4
f 544/9/4 545/9/4 547/9/4
f 547/9/4 545/9/4 548/9/4
f 549/9/4 550/9/4 551/9/4
f 551/9/4 550/9/4 552/9/4
f 553/9/4 554/9/4 555/9/4
f 555/9/4 554/9/4 556/9/4
f 557/9/4 558/9/4 559/9/4
f 559/9/4 558/9/4 560/9/4
f 561/9/4 562/9/4 563/9/4
f 563/9/4 562/9/4 564/9/4
f 565/9/4 566/9/4 567/9/4
f 567/9/4 566/9/4 568/9/4
f 569/4/4 570/4/4 572/4/4
f 570/3/4 571/3/4 573/3/4
f 572/4/4 570/4/4 573/4/4
f 573/3/4 571/3/4 574/3/4
f 575/4/4 576/4/4 578/4/4
f 576/3/4 577/3/4 579/3/4
f 578/4/4 576/4/4 579/4/4
f 579/3/4 577/3/4 580/3/4
f 581/9/4 582/9/4 587/9/4
f 587/9/4 582/9/4 588/9/4
f 585/6/4 586/6/4 589/6/4
f 589/6/4 586/6/4 590/6/4
f 583/3/4 584/3/4 591/3/4
f 583/3/4 591/3/4 592/3/4
f 593/9/4 594/9/4 597/9/4
f 597/9/4 594/9/4 598/9/4
f 583/3/4 592/3/4 599/3/4
f 599/3/4 592/3/4 600/3/4
f 595/6/4 596/6/4 601/6/4
f 601/6/4 596/6/4 602/6/4
f 603/6/4 604/6/4 605/6/4
f 605/6/4 604/6/4 606/6/4
f 603/6/4 605/6/4 608/6/4
f 606/3/4 607/3/4 609/3/4
f 608/6/4 605/6/4 609/6/4
f 605/3/4 606/3/4 609/3/4
f 609/3/4 607/3/4 610/3/4
f 608/3/4 609/3/4 611/3/4
f 611/3/4 609/3/4 612/3/4
f 611/6/4 612/6/4 614/6/4
f 612/3/4 613/3/4 614/3/4
f 614/3/4 613/3/4 615/3/4
f 615/3/4 613/3/4 616/3/4
f 611/6/4 614/6/4 617/6/4
f 614/6/4 615/6/4 617/6/4
f 617/6/4 615/6/4 618/6/4
f 619/3/4 620/3/4 621/3/4
f 621/3/4 620/3/4 622/3/4
f 627/9/5 624/9/5 623/9/5
f 628/9/5 624/9/5 627/9/5
f 629/9/5 626/9/5 625/9/5
f 630/9/5 626/9/5 629/9/5
f 631/9/5 627/9/5 623/9/5
f 631/4/5 628/4/5 627/4/5
f 632/9/5 624/9/5 628/9/5
f 632/4/5 628/4/5 631/4/5
f 633/4/5 630/4/5 629/4/5
f 633/9/5 629/9/5 625/9/5
f 634/9/5 626/9/5 630/9/5
f 634/4/5 630/4/5 633/4/5
f 635/9/5 631/9/5 623/9/5
f 635/9/5 632/9/5 631/9/5
f 636/9/5 624/9/5 632/9/5
f 636/9/5 632/9/5 635/9/5
f 637/9/5 633/9/5 625/9/5
f 637/9/5 634/9/5 633/9/5
f 638/9/5 626/9/5 634/9/5
f 638/9/5 634/9/5 637/9/5
f 643/9/5 640/9/5 639/9/5
f 644/9/5 640/9/5 643/9/5
f 645/9/5 642/9/5 641/9/5
f 646/9/5 642/9/5 645/9/5
f 647/9/5 643/9/5 639/9/5
f 647/4/5 644/4/5 643/4/5
f 648/9/5 640/9/5 644/9/5
f 648/4/5 644/4/5 647/4/5
f 649/4/5 646/4/5 645/4/5
f 649/9/5 645/9/5 641/9/5
f 650/9/5 642/9/5 646/9/5
f 650/4/5 646/4/5 649/4/5
f 651/9/5 647/9/5 639/9/5
f 651/9/5 648/9/5 647/9/5
f 652/9/5 640/9/5 648/9/5
f 652/9/5 648/9/5 651/9/5
f 653/9/5 649/9/5 641/9/5
f 653/9/5 650/9/5 649/9/5
f 654/9/5 642/9/5 650/9/5
f 654/9/5 650/9/5 653/9/5
f 657/3/5 656/3/5 655/3/5
f 658/3/5 656/3/5 657/3/5
f 659/3/5 656/3/5 658/3/5
f 660/3/5 656/3/5 659/3/5
f 661/3/5 657/3/5 655/3/5
f 662/3/5 657/3/5 661/3/5
f 663/3/5 659/3/5 658/3/5
f 664/3/5 659/3/5 663/3/5
f 665/3/5 656/3/5 660/3/5
f 666/3/5 656/3/5 665/3/5
f 667/3/5 664/3/5 663/3/5
f 668/3/5 664/3/5 667/3/5
f 669/3/5 664/3/5 668/3/5
f 670/3/5 664/3/5 669/3/5
f 671/6/5 668/6/5 667/6/5
f 671/3/5 669/3/5 668/3/5
f 672/6/5 670/6/5 669/6/5
f 672/3/5 669/3/5 671/3/5
f 673/6/5 662/6/5 661/6/5
f 674/6/5 671/6/5 667/6/5
f 674/6/5 672/6/5 671/6/5
f 675/6/5 670/6/5 672/6/5
f 675/6/5 672/6/5 674/6/5
f 676/6/5 666/6/5 665/6/5
f 677/6/5 674/6/5 673/6/5
f 677/6/5 676/6/5 675/6/5
f 677/6/5 675/6/5 674/6/5
f 677/6/5 673/6/5 661/6/5
f 678/6/5 676/6/5 677/6/5
f 679/6/5 676/6/5 678/6/5
f 680/6/5 666/6/5 676/6/5
f 680/6/5 676/6/5 679/6/5
f 681/6/5 679/6/5 678/6/5
f 682/6/5 679/6/5 681/6/5
f 683/6/5 681/6/5 678/6/5
f 684/3/5 682/3/5 681/3/5
f 684/6/5 681/6/5 683/6/5
f 685/6/5 679/6/5 682/6/5
f 685/3/5 682/3/5 684/3/5
f 686/6/5 679/6/5 685/6/5
f 687/6/5 677/6/5 661/6/5
f 688/6/5 677/6/5 687/6/5
f 689/3/5 684/3/5 683/3/5
f 689/3/5 685/3/5 684/3/5
f 689/3/5 686/3/5 685/3/5
f 690/3/5 686/3/5 689/3/5
f 691/6/5 666/6/5 680/6/5
f 692/6/5 666/6/5 691/6/5
f 693/3/5 688/3/5 687/3/5
f 694/3/5 690/3/5 689/3/5
f 695/3/5 690/3/5 694/3/5
f 696/3/5 692/3/5 691/3/5
f 697/3/5 693/3/5 687/3/5
f 697/3/5 696/3/5 695/3/5
f 697/3/5 695/3/5 694/3/5
f 697/3/5 694/3/5 693/3/5
f 698/3/5 692/3/5 696/3/5
f 698/3/5 696/3/5 697/3/5
f 704/6/5 700/6/5 699/6/5
f 705/3/5 701/3/5 700/3/5
f 705/6/5 700/6/5 704/6/5
f 706/6/5 702/6/5 701/6/5
f 706/3/5 701/3/5 705/3/5
f 707/6/5 702/6/5 706/6/5
f 709/6/5 704/6/5 703/6/5
f 710/6/5 708/6/5 707/6/5
f 711/6/5 709/6/5 703/6/5
f 712/6/5 708/6/5 710/6/5
f 713/6/5 711/6/5 703/6/5
f 716/6/5 708/6/5 712/6/5
f 717/6/5 713/6/5 703/6/5
f 717/6/5 714/6/5 713/6/5
f 718/3/5 715/3/5 714/3/5
f 718/6/5 714/6/5 717/6/5
f 719/6/5 716/6/5 715/6/5
f 719/3/5 715/3/5 718/3/5
f 720/6/5 708/6/5 716/6/5
f 720/6/5 716/6/5 719/6/5
f 723/3/5 722/3/5 721/3/5
f 724/3/5 722/3/5 723/3/5
f 727/3/5 726/3/5 725/3/5
f 728/3/5 726/3/5 727/3/5
f 731/2/5 730/2/5 729/2/5
f 732/2/5 730/2/5 731/2/5
f 736/1/5 734/1/5 733/1/5
f 737/1/5 734/1/5 736/1/5
f 740/6/5 736/6/5 735/6/5
f 740/6/5 739/6/5 738/6/5
f 740/6/5 738/6/5 737/6/5
f 740/6/5 737/6/5 736/6/5
f 741/6/5 739/6/5 740/6/5
f 747/6/5 743/6/5 742/6/5
f 748/2/5 744/2/5 743/2/5
f 748/6/5 743/6/5 747/6/5
f 749/2/5 744/2/5 748/2/5
f 750/6/5 746/6/5 745/6/5
f 751/6/5 746/6/5 750/6/5
f 756/9/5 753/9/5 752/9/5
f 757/9/5 753/9/5 756/9/5
f 758/5/5 755/5/5 754/5/5
f 759/5/5 755/5/5 758/5/5
f 760/9/6 761/9/6 764/9/6
f 764/9/6 761/9/6 765/9/6
f 762/9/6 763/9/6 766/9/6
f 766/9/6 763/9/6 767/9/6
f 760/9/6 764/9/6 768/9/6
f 765/9/6 761/9/6 769/9/6
f 762/9/6 766/9/6 770/9/6
f 767/9/6 763/9/6 771/9/6
f 760/9/6 768/9/6 772/9/6
f 768/9/6 769/9/6 772/9/6
f 769/9/6 761/9/6 773/9/6
f 772/9/6 769/9/6 773/9/6
f 770/9/6 771/9/6 774/9/6
f 762/9/6 770/9/6 774/9/6
f 771/9/6 763/9/6 775/9/6
f 774/9/6 771/9/6 775/9/6
f 776/9/6 777/9/6 780/9/6
f 780/9/6 777/9/6 781/9/6
f 778/9/6 779/9/6 782/9/6
f 782/9/6 779/9/6 783/9/6
f 776/9/6 780/9/6 784/9/6
f 781/9/6 777/9/6 785/9/6
f 778/9/6 782/9/6 786/9/6
f 783/9/6 779/9/6 787/9/6
f 776/9/6 784/9/6 788/9/6
f 784/9/6 785/9/6 788/9/6
f 785/9/6 777/9/6 789/9/6
f 788/9/6 785/9/6 789/9/6
f 786/9/6 787/9/6 790/9/6
f 778/9/6 786/9/6 790/9/6
f 787/9/6 779/9/6 791/9/6
f 790/9/6 787/9/6 791/9/6
f 792/6/6 793/6/6 796/6/6
f 794/6/6 795/6/6 799/6/6
f 796/6/6 797/6/6 800/6/6
f 792/6/6 796/6/6 800/6/6
f 800/6/6 797/6/6 801/6/6
f 798/6/6 799/6/6 802/6/6
f 799/6/6 795/6/6 803/6/6
f 802/6/6 799/6/6 803/6/6
f 804/6/6 805/6/6 808/6/6
f 806/6/6 807/6/6 811/6/6
f 812/9/6 813/9/6 814/9/6
f 814/9/6 813/9/6 815/9/6
f 808/6/6 809/6/6 816/6/6
f 810/6/6 811/6/6 819/6/6
f 816/6/6 817/6/6 820/6/6
f 818/6/6 819/6/6 823/6/6
f 820/6/6 821/6/6 824/6/6
f 822/6/6 823/6/6 825/6/6
f 820/6/6 824/6/6 826/6/6
f 824/6/6 825/6/6 826/6/6
f 804/6/6 808/6/6 826/6/6
f 808/6/6 816/6/6 826/6/6
f 816/6/6 820/6/6 826/6/6
f 826/6/6 825/6/6 827/6/6
f 825/6/6 823/6/6 828/6/6
f 827/6/6 825/6/6 828/6/6
f 811/6/6 807/6/6 829/6/6
f 828/6/6 823/6/6 829/6/6
f 823/6/6 819/6/6 829/6/6
f 819/6/6 811/6/6 829/6/6
f 827/3/6 828/3/6 830/3/6
f 830/3/6 828/3/6 831/3/6
f 831/3/6 828/3/6 832/3/6
f 832/3/6 828/3/6 833/3/6
f 831/3/6 832/3/6 834/3/6
f 834/3/6 832/3/6 835/3/6
f 836/9/6 837/9/6 840/9/6
f 838/9/6 839/9/6 841/9/6
f 836/9/6 840/9/6 842/9/6
f 840/9/6 841/9/6 842/9/6
f 842/9/6 841/9/6 843/9/6
f 841/9/6 839/9/6 844/9/6
f 843/9/6 841/9/6 844/9/6
f 844/9/6 839/9/6 845/9/6
f 843/9/6 844/9/6 846/9/6
f 846/9/6 844/9/6 847/9/6
f 847/9/6 844/9/6 848/9/6
f 848/9/6 844/9/6 849/9/6
f 847/9/6 848/9/6 850/9/6
f 850/9/6 848/9/6 851/9/6
f 852/9/6 853/9/6 856/9/6
f 856/9/6 853/9/6 857/9/6
f 854/9/6 855/9/6 858/9/6
f 858/9/6 855/9/6 859/9/6
f 860/6/6 861/6/6 864/6/6
f 861/9/6 862/9/6 864/9/6
f 862/6/6 863/6/6 865/6/6
f 864/9/6 862/9/6 865/9/6
f 860/6/6 864/6/6 866/6/6
f 864/6/6 865/6/6 866/6/6
f 865/6/6 863/6/6 867/6/6
f 866/6/6 865/6/6 867/6/6
f 868/6/6 869/6/6 870/6/6
f 870/6/6 869/6/6 871/6/6
f 868/6/6 870/6/6 873/6/6
f 873/6/6 870/6/6 874/6/6
f 874/6/6 870/6/6 875/6/6
f 871/6/6 869/6/6 876/6/6
f 876/6/6 869/6/6 877/6/6
f 877/6/6 869/6/6 878/6/6
f 872/9/6 873/9/6 880/9/6
f 873/6/6 874/6/6 881/6/6
f 880/9/6 873/9/6 881/9/6
f 878/5/6 879/5/6 882/5/6
f 877/6/6 878/6/6 882/6/6
f 882/5/6 879/5/6 883/5/6
f 881/6/6 874/6/6 884/6/6
f 884/6/6 874/6/6 885/6/6
f 877/6/6 882/6/6 888/6/6
f 888/6/6 882/6/6 889/6/6
f 885/6/6 886/6/6 891/6/6
f 887/6/6 888/6/6 892/6/6
f 890/6/6 891/6/6 894/6/6
f 891/6/6 886/6/6 895/6/6
f 894/6/6 891/6/6 895/6/6
f 892/6/6 893/6/6 896/6/6
f 887/6/6 892/6/6 896/6/6
f 896/6/6 893/6/6 897/6/6
f 895/9/6 896/9/6 898/9/6
f 898/9/6 896/9/6 899/9/6
f 900/9/6 901/9/6 903/9/6
f 903/9/6 901/9/6 904/9/6
f 902/9/6 903/9/6 907/9/6
f 904/9/6 905/9/6 907/9/6
f 903/9/6 904/9/6 907/9/6
f 907/9/6 905/9/6 908/9/6
f 908/9/6 905/9/6 909/9/6
f 909/9/6 905/9/6 910/9/6
f 906/3/6 907/3/6 912/3/6
f 912/3/6 907/3/6 913/3/6
f 910/3/6 911/3/6 914/3/6
f 914/3/6 911/3/6 915/3/6
f 908/9/6 909/9/6 916/9/6
f 916/9/6 909/9/6 917/9/6
f 918/3/6 919/3/6 922/3/6
f 922/3/6 919/3/6 923/3/6
f 920/3/6 921/3/6 924/3/6
f 924/3/6 921/3/6 925/3/6
