# MagicaVoxel @ Ephtracy

# group
o 

# material
mtllib AutoBlauw.mtl
usemtl palette

# normals
vn -1 0 0
vn 1 0 0
vn 0 0 1
vn 0 0 -1
vn 0 -1 0
vn 0 1 0

# texcoords
vt 0.728516 0.5
vt 0.833984 0.5
vt 0.935547 0.5
vt 0.951172 0.5
vt 0.966797 0.5
vt 0.978516 0.5
vt 0.994141 0.5

# verts
v -1.7 0.6 2.6
v -1.7 0.6 2.4
v -1.7 0.6 1.5
v -1.7 0.6 1.3
v -1.7 0.6 -2.1
v -1.7 0.6 -2.3
v -1.7 0.6 -3.2
v -1.7 0.6 -3.4
v -1.7 0.7 1.3
v -1.7 0.7 -2.1
v -1.7 0.8 1.2
v -1.7 0.8 -2
v -1.7 0.9 2.4
v -1.7 0.9 1.5
v -1.7 0.9 1.3
v -1.7 0.9 1.2
v -1.7 0.9 -2
v -1.7 0.9 -2.1
v -1.7 0.9 -2.3
v -1.7 0.9 -3.2
v -1.7 1.1 2.6
v -1.7 1.1 1.3
v -1.7 1.1 -2.1
v -1.7 1.1 -3.4
v -1.6 0 2.5
v -1.6 0 1.4
v -1.6 0 -2.2
v -1.6 0 -3.3
v -1.6 0.2 2.6
v -1.6 0.2 2.5
v -1.6 0.2 2.2
v -1.6 0.2 1.7
v -1.6 0.2 1.4
v -1.6 0.2 1.3
v -1.6 0.2 -2.1
v -1.6 0.2 -2.2
v -1.6 0.2 -2.5
v -1.6 0.2 -3
v -1.6 0.2 -3.3
v -1.6 0.2 -3.4
v -1.6 0.6 2.6
v -1.6 0.6 2.4
v -1.6 0.6 2.2
v -1.6 0.6 1.7
v -1.6 0.6 1.5
v -1.6 0.6 1.3
v -1.6 0.6 -2.1
v -1.6 0.6 -2.3
v -1.6 0.6 -2.5
v -1.6 0.6 -3
v -1.6 0.6 -3.2
v -1.6 0.6 -3.4
v -1.6 0.7 3.7
v -1.6 0.7 2.6
v -1.6 0.7 2.4
v -1.6 0.7 1.5
v -1.6 0.7 -2.3
v -1.6 0.7 -3.2
v -1.6 0.7 -3.4
v -1.6 0.7 -3.9
v -1.6 0.7 -4
v -1.6 0.8 1.2
v -1.6 0.8 -2
v -1.6 0.9 2.4
v -1.6 0.9 1.5
v -1.6 0.9 1.3
v -1.6 0.9 1.2
v -1.6 0.9 -2
v -1.6 0.9 -2.1
v -1.6 0.9 -2.3
v -1.6 0.9 -3.2
v -1.6 0.9 -3.9
v -1.6 0.9 -4
v -1.6 1 -3.9
v -1.6 1 -4
v -1.6 1.1 2.6
v -1.6 1.1 1.3
v -1.6 1.1 -2.1
v -1.6 1.1 -3.4
v -1.6 1.2 -3.8
v -1.6 1.2 -4
v -1.6 1.3 3.7
v -1.6 1.3 2.7
v -1.6 1.3 -2.9
v -1.6 1.3 -3.8
v -1.6 1.7 1.5
v -1.6 1.7 0.2
v -1.6 1.7 -0.2
v -1.6 1.7 -1.7
v -1.6 1.7 -2
v -1.6 1.7 -2.9
v -1.6 2.5 -1.8
v -1.6 2.5 -2
v -1.6 2.6 2.7
v -1.6 2.6 2.6
v -1.6 2.6 1.5
v -1.6 2.6 0.2
v -1.6 2.6 -0.2
v -1.6 2.6 -1.7
v -1.6 2.7 2.6
v -1.6 2.7 2.5
v -1.6 2.8 2.5
v -1.6 2.8 2.4
v -1.6 2.8 -1.3
v -1.6 2.8 -1.8
v -1.6 2.9 2.4
v -1.6 2.9 -1.3
v -1.5 2.5 -1.8
v -1.5 2.5 -2
v -1.5 2.6 2.7
v -1.5 2.6 2.6
v -1.5 2.6 -1.9
v -1.5 2.6 -2
v -1.5 2.7 2.7
v -1.5 2.7 2.6
v -1.5 2.7 -1.8
v -1.5 2.7 -1.9
v -1.5 2.8 2.5
v -1.5 2.8 2.4
v -1.5 2.8 -1.3
v -1.5 2.8 -1.6
v -1.5 2.9 2.5
v -1.5 2.9 2.4
v -1.5 2.9 -1.3
v -1.5 2.9 -1.6
v -1.4 1.2 -3.8
v -1.4 1.2 -4
v -1.4 1.3 -3.8
v -1.4 1.3 -4
v -1.4 2.6 -1.9
v -1.4 2.6 -2
v -1.4 2.7 -1.9
v -1.4 2.7 -2
v -1.4 2.8 -1.6
v -1.4 2.8 -1.7
v -1.4 2.9 -1.6
v -1.4 2.9 -1.7
v -1.3 0.1 -3.3
v -1.3 0.1 -3.4
v -1.3 0.2 -3.3
v -1.3 0.2 -3.4
v -1.3 1.3 3.5
v -1.3 1.3 2.7
v -1.3 1.8 3.5
v -1.3 1.8 3.4
v -1.3 1.9 3.4
v -1.3 1.9 2.7
v -1.3 2.7 2.7
v -1.3 2.7 2.5
v -1.3 2.8 2.7
v -1.3 2.8 2.6
v -1.3 2.9 2.6
v -1.3 2.9 2.5
v -1.2 1.8 3.5
v -1.2 1.8 3.4
v -1.2 1.9 3.5
v -1.2 1.9 3.4
v -1.1 2.8 -1.7
v -1.1 2.8 -1.8
v -1.1 2.9 -1.7
v -1.1 2.9 -1.8
v -0.9 2.7 -1.8
v -0.9 2.7 -1.9
v -0.9 2.8 -1.8
v -0.9 2.8 -1.9
v -0.8 0.9 -3.9
v -0.8 0.9 -4
v -0.8 1 -3.9
v -0.8 1 -4
v -0.3 1.1 -3.9
v -0.3 1.1 -4
v -0.3 1.2 -3.9
v -0.3 1.2 -4
v 0.5 1.1 -3.9
v 0.5 1.1 -4
v 0.5 1.2 -3.9
v 0.5 1.2 -4
v 0.9 1 -3.9
v 0.9 1 -4
v 0.9 1.1 -3.9
v 0.9 1.1 -4
v 1.2 0 2.5
v 1.2 0 1.4
v 1.2 0 -2.2
v 1.2 0 -3.3
v 1.2 0.1 -3.3
v 1.2 0.1 -3.4
v 1.2 0.2 2.6
v 1.2 0.2 2.5
v 1.2 0.2 1.4
v 1.2 0.2 1.3
v 1.2 0.2 -2.1
v 1.2 0.2 -2.2
v 1.2 0.7 2.6
v 1.2 0.7 1.3
v 1.2 0.7 -2.1
v 1.2 0.7 -3.4
v -1.2 0 2.5
v -1.2 0 1.4
v -1.2 0 -2.2
v -1.2 0 -3.3
v -1.2 0.1 -3.3
v -1.2 0.1 -3.4
v -1.2 0.2 2.6
v -1.2 0.2 2.5
v -1.2 0.2 1.4
v -1.2 0.2 1.3
v -1.2 0.2 -2.1
v -1.2 0.2 -2.2
v -1.2 0.7 2.6
v -1.2 0.7 1.3
v -1.2 0.7 -2.1
v -1.2 0.7 -3.4
v -0.9 1 -3.9
v -0.9 1 -4
v -0.9 1.1 -3.9
v -0.9 1.1 -4
v -0.5 1.1 -3.9
v -0.5 1.1 -4
v -0.5 1.2 -3.9
v -0.5 1.2 -4
v 0.3 1.1 -3.9
v 0.3 1.1 -4
v 0.3 1.2 -3.9
v 0.3 1.2 -4
v 0.8 0.9 -3.9
v 0.8 0.9 -4
v 0.8 1 -3.9
v 0.8 1 -4
v 0.9 2.7 -1.8
v 0.9 2.7 -1.9
v 0.9 2.8 -1.8
v 0.9 2.8 -1.9
v 1.1 2.8 -1.7
v 1.1 2.8 -1.8
v 1.1 2.9 -1.7
v 1.1 2.9 -1.8
v 1.2 1.8 3.5
v 1.2 1.8 3.4
v 1.2 1.9 3.5
v 1.2 1.9 3.4
v 1.3 0.1 -3.3
v 1.3 0.1 -3.4
v 1.3 0.2 -3.3
v 1.3 0.2 -3.4
v 1.3 1.3 3.5
v 1.3 1.3 2.7
v 1.3 1.8 3.5
v 1.3 1.8 3.4
v 1.3 1.9 3.4
v 1.3 1.9 2.7
v 1.3 2.7 2.7
v 1.3 2.7 2.5
v 1.3 2.8 2.7
v 1.3 2.8 2.6
v 1.3 2.9 2.6
v 1.3 2.9 2.5
v 1.4 1.2 -3.8
v 1.4 1.2 -4
v 1.4 1.3 -3.8
v 1.4 1.3 -4
v 1.4 2.6 -1.9
v 1.4 2.6 -2
v 1.4 2.7 -1.9
v 1.4 2.7 -2
v 1.4 2.8 -1.6
v 1.4 2.8 -1.7
v 1.4 2.9 -1.6
v 1.4 2.9 -1.7
v 1.5 2.5 -1.8
v 1.5 2.5 -2
v 1.5 2.6 2.7
v 1.5 2.6 2.6
v 1.5 2.6 -1.9
v 1.5 2.6 -2
v 1.5 2.7 2.7
v 1.5 2.7 2.6
v 1.5 2.7 -1.8
v 1.5 2.7 -1.9
v 1.5 2.8 2.5
v 1.5 2.8 2.4
v 1.5 2.8 -1.3
v 1.5 2.8 -1.6
v 1.5 2.9 2.5
v 1.5 2.9 2.4
v 1.5 2.9 -1.3
v 1.5 2.9 -1.6
v 1.6 0 2.5
v 1.6 0 1.4
v 1.6 0 -2.2
v 1.6 0 -3.3
v 1.6 0.2 2.6
v 1.6 0.2 2.5
v 1.6 0.2 2.2
v 1.6 0.2 1.7
v 1.6 0.2 1.4
v 1.6 0.2 1.3
v 1.6 0.2 -2.1
v 1.6 0.2 -2.2
v 1.6 0.2 -2.5
v 1.6 0.2 -3
v 1.6 0.2 -3.3
v 1.6 0.2 -3.4
v 1.6 0.6 2.6
v 1.6 0.6 2.4
v 1.6 0.6 2.2
v 1.6 0.6 1.7
v 1.6 0.6 1.5
v 1.6 0.6 1.3
v 1.6 0.6 -2.1
v 1.6 0.6 -2.3
v 1.6 0.6 -2.5
v 1.6 0.6 -3
v 1.6 0.6 -3.2
v 1.6 0.6 -3.4
v 1.6 0.7 3.7
v 1.6 0.7 2.6
v 1.6 0.7 2.4
v 1.6 0.7 1.5
v 1.6 0.7 -2.3
v 1.6 0.7 -3.2
v 1.6 0.7 -3.4
v 1.6 0.7 -3.9
v 1.6 0.7 -4
v 1.6 0.8 1.2
v 1.6 0.8 -2
v 1.6 0.9 2.4
v 1.6 0.9 1.5
v 1.6 0.9 1.3
v 1.6 0.9 1.2
v 1.6 0.9 -2
v 1.6 0.9 -2.1
v 1.6 0.9 -2.3
v 1.6 0.9 -3.2
v 1.6 0.9 -3.9
v 1.6 0.9 -4
v 1.6 1 -3.9
v 1.6 1 -4
v 1.6 1.1 2.6
v 1.6 1.1 1.3
v 1.6 1.1 -2.1
v 1.6 1.1 -3.4
v 1.6 1.2 -3.8
v 1.6 1.2 -4
v 1.6 1.3 3.7
v 1.6 1.3 2.7
v 1.6 1.3 -2.9
v 1.6 1.3 -3.8
v 1.6 1.7 1.5
v 1.6 1.7 0.2
v 1.6 1.7 -0.2
v 1.6 1.7 -1.7
v 1.6 1.7 -2
v 1.6 1.7 -2.9
v 1.6 2.5 -1.8
v 1.6 2.5 -2
v 1.6 2.6 2.7
v 1.6 2.6 2.6
v 1.6 2.6 1.5
v 1.6 2.6 0.2
v 1.6 2.6 -0.2
v 1.6 2.6 -1.7
v 1.6 2.7 2.6
v 1.6 2.7 2.5
v 1.6 2.8 2.5
v 1.6 2.8 2.4
v 1.6 2.8 -1.3
v 1.6 2.8 -1.8
v 1.6 2.9 2.4
v 1.6 2.9 -1.3
v 1.7 0.6 2.6
v 1.7 0.6 2.4
v 1.7 0.6 1.5
v 1.7 0.6 1.3
v 1.7 0.6 -2.1
v 1.7 0.6 -2.3
v 1.7 0.6 -3.2
v 1.7 0.6 -3.4
v 1.7 0.7 1.3
v 1.7 0.7 -2.1
v 1.7 0.8 1.2
v 1.7 0.8 -2
v 1.7 0.9 2.4
v 1.7 0.9 1.5
v 1.7 0.9 1.3
v 1.7 0.9 1.2
v 1.7 0.9 -2
v 1.7 0.9 -2.1
v 1.7 0.9 -2.3
v 1.7 0.9 -3.2
v 1.7 1.1 2.6
v 1.7 1.1 1.3
v 1.7 1.1 -2.1
v 1.7 1.1 -3.4
v -1.6 0.7 3.7
v -1.6 1.3 3.7
v -0.8 0.7 3.7
v -0.8 1.2 3.7
v -0.7 0.8 3.7
v -0.7 1 3.7
v -0.7 1.1 3.7
v -0.6 0.8 3.7
v -0.6 1 3.7
v -0.6 1.1 3.7
v -0.5 0.8 3.7
v -0.5 1 3.7
v -0.5 1.1 3.7
v -0.4 1 3.7
v -0.4 1.1 3.7
v -0.3 0.8 3.7
v -0.3 1.1 3.7
v -0.2 0.9 3.7
v -0.2 1 3.7
v -0.1 0.9 3.7
v -0.1 1 3.7
v 0 0.8 3.7
v 0 1.1 3.7
v 0.0999999 0.8 3.7
v 0.0999999 1.1 3.7
v 0.2 0.9 3.7
v 0.2 1 3.7
v 0.3 0.8 3.7
v 0.3 0.9 3.7
v 0.3 1 3.7
v 0.3 1.1 3.7
v 0.4 0.9 3.7
v 0.4 1 3.7
v 0.5 0.8 3.7
v 0.5 1.1 3.7
v 0.6 0.8 3.7
v 0.6 1.1 3.7
v 0.7 0.8 3.7
v 0.7 1.1 3.7
v 0.8 0.7 3.7
v 0.8 1.2 3.7
v 1.6 0.7 3.7
v 1.6 1.3 3.7
v -1.3 1.3 3.5
v -1.3 1.8 3.5
v -1.2 1.8 3.5
v -1.2 1.9 3.5
v 1.2 1.8 3.5
v 1.2 1.9 3.5
v 1.3 1.3 3.5
v 1.3 1.8 3.5
v -1.3 1.8 3.4
v -1.3 1.9 3.4
v -1.2 1.8 3.4
v -1.2 1.9 3.4
v 1.2 1.8 3.4
v 1.2 1.9 3.4
v 1.3 1.8 3.4
v 1.3 1.9 3.4
v -1.6 1.3 2.7
v -1.6 2.6 2.7
v -1.5 2.6 2.7
v -1.5 2.7 2.7
v -1.3 1.3 2.7
v -1.3 1.9 2.7
v -1.3 2.7 2.7
v -1.3 2.8 2.7
v -1.1 2 2.7
v -1.1 2.7 2.7
v 1.1 2 2.7
v 1.1 2.7 2.7
v 1.3 1.3 2.7
v 1.3 1.9 2.7
v 1.3 2.7 2.7
v 1.3 2.8 2.7
v 1.5 2.6 2.7
v 1.5 2.7 2.7
v 1.6 1.3 2.7
v 1.6 2.6 2.7
v -1.7 0.6 2.6
v -1.7 1.1 2.6
v -1.6 0.2 2.6
v -1.6 0.6 2.6
v -1.6 0.7 2.6
v -1.6 1.1 2.6
v -1.6 2.6 2.6
v -1.6 2.7 2.6
v -1.5 2.6 2.6
v -1.5 2.7 2.6
v -1.3 2.8 2.6
v -1.3 2.9 2.6
v -1.2 0.2 2.6
v -1.2 0.7 2.6
v 1.2 0.2 2.6
v 1.2 0.7 2.6
v 1.3 2.8 2.6
v 1.3 2.9 2.6
v 1.5 2.6 2.6
v 1.5 2.7 2.6
v 1.6 0.2 2.6
v 1.6 0.6 2.6
v 1.6 0.7 2.6
v 1.6 1.1 2.6
v 1.6 2.6 2.6
v 1.6 2.7 2.6
v 1.7 0.6 2.6
v 1.7 1.1 2.6
v -1.6 0 2.5
v -1.6 0.2 2.5
v -1.6 2.7 2.5
v -1.6 2.8 2.5
v -1.5 2.8 2.5
v -1.5 2.9 2.5
v -1.3 2.7 2.5
v -1.3 2.9 2.5
v -1.2 0 2.5
v -1.2 0.2 2.5
v 1.2 0 2.5
v 1.2 0.2 2.5
v 1.3 2.7 2.5
v 1.3 2.9 2.5
v 1.5 2.8 2.5
v 1.5 2.9 2.5
v 1.6 0 2.5
v 1.6 0.2 2.5
v 1.6 2.7 2.5
v 1.6 2.8 2.5
v -1.6 2.8 2.4
v -1.6 2.9 2.4
v -1.5 2.8 2.4
v -1.5 2.9 2.4
v 1.5 2.8 2.4
v 1.5 2.9 2.4
v 1.6 2.8 2.4
v 1.6 2.9 2.4
v -1.7 0.6 1.5
v -1.7 0.9 1.5
v -1.6 0.6 1.5
v -1.6 0.7 1.5
v -1.6 0.9 1.5
v 1.6 0.6 1.5
v 1.6 0.7 1.5
v 1.6 0.9 1.5
v 1.7 0.6 1.5
v 1.7 0.9 1.5
v -1.7 0.8 -2
v -1.7 0.9 -2
v -1.6 0.8 -2
v -1.6 0.9 -2
v 1.6 0.8 -2
v 1.6 0.9 -2
v 1.7 0.8 -2
v 1.7 0.9 -2
v -1.7 0.6 -2.1
v -1.7 0.7 -2.1
v -1.7 0.9 -2.1
v -1.7 1.1 -2.1
v -1.6 0.2 -2.1
v -1.6 0.6 -2.1
v -1.6 0.7 -2.1
v -1.6 0.9 -2.1
v -1.6 1.1 -2.1
v -1.2 0.2 -2.1
v -1.2 0.7 -2.1
v 1.2 0.2 -2.1
v 1.2 0.7 -2.1
v 1.6 0.2 -2.1
v 1.6 0.6 -2.1
v 1.6 0.7 -2.1
v 1.6 0.9 -2.1
v 1.6 1.1 -2.1
v 1.7 0.6 -2.1
v 1.7 0.7 -2.1
v 1.7 0.9 -2.1
v 1.7 1.1 -2.1
v -1.6 0 -2.2
v -1.6 0.2 -2.2
v -1.2 0 -2.2
v -1.2 0.2 -2.2
v 1.2 0 -2.2
v 1.2 0.2 -2.2
v 1.6 0 -2.2
v 1.6 0.2 -2.2
v -1.7 0.6 -3.2
v -1.7 0.9 -3.2
v -1.6 0.6 -3.2
v -1.6 0.7 -3.2
v -1.6 0.9 -3.2
v 1.6 0.6 -3.2
v 1.6 0.7 -3.2
v 1.6 0.9 -3.2
v 1.7 0.6 -3.2
v 1.7 0.9 -3.2
v -1.7 0.6 2.4
v -1.7 0.9 2.4
v -1.6 0.6 2.4
v -1.6 0.7 2.4
v -1.6 0.9 2.4
v 1.6 0.6 2.4
v 1.6 0.7 2.4
v 1.6 0.9 2.4
v 1.7 0.6 2.4
v 1.7 0.9 2.4
v -1.6 0 1.4
v -1.6 0.2 1.4
v -1.2 0 1.4
v -1.2 0.2 1.4
v 1.2 0 1.4
v 1.2 0.2 1.4
v 1.6 0 1.4
v 1.6 0.2 1.4
v -1.7 0.6 1.3
v -1.7 0.7 1.3
v -1.7 0.9 1.3
v -1.7 1.1 1.3
v -1.6 0.2 1.3
v -1.6 0.6 1.3
v -1.6 0.7 1.3
v -1.6 0.9 1.3
v -1.6 1.1 1.3
v -1.2 0.2 1.3
v -1.2 0.7 1.3
v 1.2 0.2 1.3
v 1.2 0.7 1.3
v 1.6 0.2 1.3
v 1.6 0.6 1.3
v 1.6 0.7 1.3
v 1.6 0.9 1.3
v 1.6 1.1 1.3
v 1.7 0.6 1.3
v 1.7 0.7 1.3
v 1.7 0.9 1.3
v 1.7 1.1 1.3
v -1.7 0.8 1.2
v -1.7 0.9 1.2
v -1.6 0.8 1.2
v -1.6 0.9 1.2
v 1.6 0.8 1.2
v 1.6 0.9 1.2
v 1.7 0.8 1.2
v 1.7 0.9 1.2
v -1.6 2.8 -1.3
v -1.6 2.9 -1.3
v -1.5 2.8 -1.3
v -1.5 2.9 -1.3
v 1.5 2.8 -1.3
v 1.5 2.9 -1.3
v 1.6 2.8 -1.3
v 1.6 2.9 -1.3
v -1.5 2.8 -1.6
v -1.5 2.9 -1.6
v -1.4 2.8 -1.6
v -1.4 2.9 -1.6
v 1.4 2.8 -1.6
v 1.4 2.9 -1.6
v 1.5 2.8 -1.6
v 1.5 2.9 -1.6
v -1.4 2.8 -1.7
v -1.4 2.9 -1.7
v -1.1 2.8 -1.7
v -1.1 2.9 -1.7
v 1.1 2.8 -1.7
v 1.1 2.9 -1.7
v 1.4 2.8 -1.7
v 1.4 2.9 -1.7
v -1.6 2.5 -1.8
v -1.6 2.8 -1.8
v -1.5 2.5 -1.8
v -1.5 2.7 -1.8
v -1.1 2.8 -1.8
v -1.1 2.9 -1.8
v -0.9 2.7 -1.8
v -0.9 2.8 -1.8
v 0.9 2.7 -1.8
v 0.9 2.8 -1.8
v 1.1 2.8 -1.8
v 1.1 2.9 -1.8
v 1.5 2.5 -1.8
v 1.5 2.7 -1.8
v 1.6 2.5 -1.8
v 1.6 2.8 -1.8
v -1.5 2.6 -1.9
v -1.5 2.7 -1.9
v -1.4 2.6 -1.9
v -1.4 2.7 -1.9
v -0.9 2.7 -1.9
v -0.9 2.8 -1.9
v 0.9 2.7 -1.9
v 0.9 2.8 -1.9
v 1.4 2.6 -1.9
v 1.4 2.7 -1.9
v 1.5 2.6 -1.9
v 1.5 2.7 -1.9
v -1.6 1.7 -2
v -1.6 2.5 -2
v -1.5 2.5 -2
v -1.5 2.6 -2
v -1.4 1.7 -2
v -1.4 2.5 -2
v -1.4 2.6 -2
v -1.4 2.7 -2
v 1.4 1.7 -2
v 1.4 2.5 -2
v 1.4 2.6 -2
v 1.4 2.7 -2
v 1.5 2.5 -2
v 1.5 2.6 -2
v 1.6 1.7 -2
v 1.6 2.5 -2
v -1.7 0.6 -2.3
v -1.7 0.9 -2.3
v -1.6 0.6 -2.3
v -1.6 0.7 -2.3
v -1.6 0.9 -2.3
v 1.6 0.6 -2.3
v 1.6 0.7 -2.3
v 1.6 0.9 -2.3
v 1.7 0.6 -2.3
v 1.7 0.9 -2.3
v -1.6 1.3 -2.9
v -1.6 1.7 -2.9
v 1.6 1.3 -2.9
v 1.6 1.7 -2.9
v -1.6 0 -3.3
v -1.6 0.2 -3.3
v -1.3 0.1 -3.3
v -1.3 0.2 -3.3
v -1.2 0 -3.3
v -1.2 0.1 -3.3
v 1.2 0 -3.3
v 1.2 0.1 -3.3
v 1.3 0.1 -3.3
v 1.3 0.2 -3.3
v 1.6 0 -3.3
v 1.6 0.2 -3.3
v -1.7 0.6 -3.4
v -1.7 1.1 -3.4
v -1.6 0.2 -3.4
v -1.6 0.6 -3.4
v -1.6 0.7 -3.4
v -1.6 1.1 -3.4
v -1.3 0.1 -3.4
v -1.3 0.2 -3.4
v -1.2 0.1 -3.4
v -1.2 0.7 -3.4
v 1.2 0.1 -3.4
v 1.2 0.7 -3.4
v 1.3 0.1 -3.4
v 1.3 0.2 -3.4
v 1.6 0.2 -3.4
v 1.6 0.6 -3.4
v 1.6 0.7 -3.4
v 1.6 1.1 -3.4
v 1.7 0.6 -3.4
v 1.7 1.1 -3.4
v -1.6 1.2 -3.8
v -1.6 1.3 -3.8
v -1.4 1.2 -3.8
v -1.4 1.3 -3.8
v 1.4 1.2 -3.8
v 1.4 1.3 -3.8
v 1.6 1.2 -3.8
v 1.6 1.3 -3.8
v -1.6 0.9 -3.9
v -1.6 1 -3.9
v -0.9 1 -3.9
v -0.9 1.1 -3.9
v -0.8 0.9 -3.9
v -0.8 1 -3.9
v -0.5 1.1 -3.9
v -0.5 1.2 -3.9
v -0.3 1.1 -3.9
v -0.3 1.2 -3.9
v 0.3 1.1 -3.9
v 0.3 1.2 -3.9
v 0.5 1.1 -3.9
v 0.5 1.2 -3.9
v 0.8 0.9 -3.9
v 0.8 1 -3.9
v 0.9 1 -3.9
v 0.9 1.1 -3.9
v 1.6 0.9 -3.9
v 1.6 1 -3.9
v -1.6 0.7 -4
v -1.6 0.9 -4
v -1.6 1 -4
v -1.6 1.2 -4
v -1.4 1.2 -4
v -1.4 1.3 -4
v -0.9 1 -4
v -0.9 1.1 -4
v -0.8 0.9 -4
v -0.8 1 -4
v -0.5 1.1 -4
v -0.5 1.2 -4
v -0.3 1.1 -4
v -0.3 1.2 -4
v 0.3 1.1 -4
v 0.3 1.2 -4
v 0.5 1.1 -4
v 0.5 1.2 -4
v 0.8 0.9 -4
v 0.8 1 -4
v 0.9 1 -4
v 0.9 1.1 -4
v 1.4 1.2 -4
v 1.4 1.3 -4
v 1.6 0.7 -4
v 1.6 0.9 -4
v 1.6 1 -4
v 1.6 1.2 -4
v -1.6 0 2.5
v -1.2 0 2.5
v 1.2 0 2.5
v 1.6 0 2.5
v -1.6 0 1.4
v -1.2 0 1.4
v 1.2 0 1.4
v 1.6 0 1.4
v -1.6 0 -2.2
v -1.2 0 -2.2
v 1.2 0 -2.2
v 1.6 0 -2.2
v -1.6 0 -3.3
v -1.2 0 -3.3
v 1.2 0 -3.3
v 1.6 0 -3.3
v -1.3 0.1 -3.3
v -1.2 0.1 -3.3
v 1.2 0.1 -3.3
v 1.3 0.1 -3.3
v -1.3 0.1 -3.4
v -1.2 0.1 -3.4
v 1.2 0.1 -3.4
v 1.3 0.1 -3.4
v -1.6 0.2 2.6
v -1.2 0.2 2.6
v 1.2 0.2 2.6
v 1.6 0.2 2.6
v -1.6 0.2 2.5
v -1.2 0.2 2.5
v 1.2 0.2 2.5
v 1.6 0.2 2.5
v -1.6 0.2 1.4
v -1.2 0.2 1.4
v 1.2 0.2 1.4
v 1.6 0.2 1.4
v -1.6 0.2 1.3
v -1.2 0.2 1.3
v 1.2 0.2 1.3
v 1.6 0.2 1.3
v -1.6 0.2 -2.1
v -1.2 0.2 -2.1
v 1.2 0.2 -2.1
v 1.6 0.2 -2.1
v -1.6 0.2 -2.2
v -1.2 0.2 -2.2
v 1.2 0.2 -2.2
v 1.6 0.2 -2.2
v -1.6 0.2 -3.3
v -1.3 0.2 -3.3
v 1.3 0.2 -3.3
v 1.6 0.2 -3.3
v -1.6 0.2 -3.4
v -1.3 0.2 -3.4
v 1.3 0.2 -3.4
v 1.6 0.2 -3.4
v -1.7 0.6 2.6
v -1.6 0.6 2.6
v 1.6 0.6 2.6
v 1.7 0.6 2.6
v -1.7 0.6 2.4
v -1.6 0.6 2.4
v 1.6 0.6 2.4
v 1.7 0.6 2.4
v -1.7 0.6 1.5
v -1.6 0.6 1.5
v 1.6 0.6 1.5
v 1.7 0.6 1.5
v -1.7 0.6 1.3
v -1.6 0.6 1.3
v 1.6 0.6 1.3
v 1.7 0.6 1.3
v -1.7 0.6 -2.1
v -1.6 0.6 -2.1
v 1.6 0.6 -2.1
v 1.7 0.6 -2.1
v -1.7 0.6 -2.3
v -1.6 0.6 -2.3
v 1.6 0.6 -2.3
v 1.7 0.6 -2.3
v -1.7 0.6 -3.2
v -1.6 0.6 -3.2
v 1.6 0.6 -3.2
v 1.7 0.6 -3.2
v -1.7 0.6 -3.4
v -1.6 0.6 -3.4
v 1.6 0.6 -3.4
v 1.7 0.6 -3.4
v -1.6 0.7 3.7
v -0.8 0.7 3.7
v 0.8 0.7 3.7
v 1.6 0.7 3.7
v -0.8 0.7 3.6
v 0.8 0.7 3.6
v -1.6 0.7 2.6
v -1.2 0.7 2.6
v 1.2 0.7 2.6
v 1.6 0.7 2.6
v -1.7 0.7 1.3
v -1.6 0.7 1.3
v -1.2 0.7 1.3
v 1.2 0.7 1.3
v 1.6 0.7 1.3
v 1.7 0.7 1.3
v -1.7 0.7 -2.1
v -1.6 0.7 -2.1
v -1.2 0.7 -2.1
v 1.2 0.7 -2.1
v 1.6 0.7 -2.1
v 1.7 0.7 -2.1
v -1.6 0.7 -3.4
v -1.2 0.7 -3.4
v 1.2 0.7 -3.4
v 1.6 0.7 -3.4
v -1.6 0.7 -3.9
v 1.6 0.7 -3.9
v -1.6 0.7 -4
v 1.6 0.7 -4
v -1.7 0.9 2.4
v -1.6 0.9 2.4
v 1.6 0.9 2.4
v 1.7 0.9 2.4
v -1.7 0.9 1.5
v -1.6 0.9 1.5
v 1.6 0.9 1.5
v 1.7 0.9 1.5
v -1.7 0.9 -2.3
v -1.6 0.9 -2.3
v 1.6 0.9 -2.3
v 1.7 0.9 -2.3
v -1.7 0.9 -3.2
v -1.6 0.9 -3.2
v 1.6 0.9 -3.2
v 1.7 0.9 -3.2
v -1.6 1 -3.9
v -0.9 1 -3.9
v 0.9 1 -3.9
v 1.6 1 -3.9
v -1.6 1 -4
v -0.9 1 -4
v 0.9 1 -4
v 1.6 1 -4
v -0.9 1.1 -3.9
v -0.5 1.1 -3.9
v -0.3 1.1 -3.9
v 0.3 1.1 -3.9
v 0.5 1.1 -3.9
v 0.9 1.1 -3.9
v -0.9 1.1 -4
v -0.5 1.1 -4
v -0.3 1.1 -4
v 0.3 1.1 -4
v 0.5 1.1 -4
v 0.9 1.1 -4
v -0.5 1.2 -3.9
v -0.3 1.2 -3.9
v 0.3 1.2 -3.9
v 0.5 1.2 -3.9
v -0.5 1.2 -4
v -0.3 1.2 -4
v 0.3 1.2 -4
v 0.5 1.2 -4
v -1.7 0.8 1.2
v -1.6 0.8 1.2
v 1.6 0.8 1.2
v 1.7 0.8 1.2
v -1.7 0.8 -2
v -1.6 0.8 -2
v 1.6 0.8 -2
v 1.7 0.8 -2
v -1.7 0.9 1.3
v -1.6 0.9 1.3
v 1.6 0.9 1.3
v 1.7 0.9 1.3
v -1.7 0.9 1.2
v -1.6 0.9 1.2
v 1.6 0.9 1.2
v 1.7 0.9 1.2
v -1.7 0.9 -2
v -1.6 0.9 -2
v 1.6 0.9 -2
v 1.7 0.9 -2
v -1.7 0.9 -2.1
v -1.6 0.9 -2.1
v 1.6 0.9 -2.1
v 1.7 0.9 -2.1
v -1.6 0.9 -3.9
v -0.8 0.9 -3.9
v 0.8 0.9 -3.9
v 1.6 0.9 -3.9
v -1.6 0.9 -4
v -0.8 0.9 -4
v 0.8 0.9 -4
v 1.6 0.9 -4
v -0.8 1 -3.9
v 0.8 1 -3.9
v -0.8 1 -4
v 0.8 1 -4
v -1.7 1.1 2.6
v -1.6 1.1 2.6
v 1.6 1.1 2.6
v 1.7 1.1 2.6
v -1.7 1.1 1.3
v -1.6 1.1 1.3
v 1.6 1.1 1.3
v 1.7 1.1 1.3
v -1.7 1.1 -2.1
v -1.6 1.1 -2.1
v 1.6 1.1 -2.1
v 1.7 1.1 -2.1
v -1.7 1.1 -3.4
v -1.6 1.1 -3.4
v 1.6 1.1 -3.4
v 1.7 1.1 -3.4
v -1.6 1.2 -3.8
v -1.4 1.2 -3.8
v 1.4 1.2 -3.8
v 1.6 1.2 -3.8
v -1.6 1.2 -4
v -1.4 1.2 -4
v 1.4 1.2 -4
v 1.6 1.2 -4
v -1.6 1.3 3.7
v 1.6 1.3 3.7
v -1.3 1.3 3.5
v 1.3 1.3 3.5
v -1.6 1.3 2.7
v -1.3 1.3 2.7
v 1.3 1.3 2.7
v 1.6 1.3 2.7
v -1.6 1.3 -2.9
v 1.6 1.3 -2.9
v -1.6 1.3 -3.8
v -1.4 1.3 -3.8
v 1.4 1.3 -3.8
v 1.6 1.3 -3.8
v -1.4 1.3 -4
v 1.4 1.3 -4
v -1.6 1.7 -2
v -1.4 1.7 -2
v 1.4 1.7 -2
v 1.6 1.7 -2
v -1.6 1.7 -2.9
v 1.6 1.7 -2.9
v -1.3 1.8 3.5
v -1.2 1.8 3.5
v 1.2 1.8 3.5
v 1.3 1.8 3.5
v -1.3 1.8 3.4
v -1.2 1.8 3.4
v 1.2 1.8 3.4
v 1.3 1.8 3.4
v -1.2 1.9 3.5
v 1.2 1.9 3.5
v -1.3 1.9 3.4
v -1.2 1.9 3.4
v 1.2 1.9 3.4
v 1.3 1.9 3.4
v -1.3 1.9 2.7
v 1.3 1.9 2.7
v -1.6 2.5 -1.8
v -1.5 2.5 -1.8
v 1.5 2.5 -1.8
v 1.6 2.5 -1.8
v -1.6 2.5 -2
v -1.5 2.5 -2
v 1.5 2.5 -2
v 1.6 2.5 -2
v -1.6 2.6 2.7
v -1.5 2.6 2.7
v 1.5 2.6 2.7
v 1.6 2.6 2.7
v -1.6 2.6 2.6
v -1.5 2.6 2.6
v 1.5 2.6 2.6
v 1.6 2.6 2.6
v -1.5 2.6 -1.9
v -1.4 2.6 -1.9
v 1.4 2.6 -1.9
v 1.5 2.6 -1.9
v -1.5 2.6 -2
v -1.4 2.6 -2
v 1.4 2.6 -2
v 1.5 2.6 -2
v -1.5 2.7 2.7
v -1.3 2.7 2.7
v 1.3 2.7 2.7
v 1.5 2.7 2.7
v -1.6 2.7 2.6
v -1.5 2.7 2.6
v 1.5 2.7 2.6
v 1.6 2.7 2.6
v -1.6 2.7 2.5
v -1.3 2.7 2.5
v 1.3 2.7 2.5
v 1.6 2.7 2.5
v -1.5 2.7 -1.8
v -0.9 2.7 -1.8
v 0.9 2.7 -1.8
v 1.5 2.7 -1.8
v -1.5 2.7 -1.9
v -1.4 2.7 -1.9
v -0.9 2.7 -1.9
v 0.9 2.7 -1.9
v 1.4 2.7 -1.9
v 1.5 2.7 -1.9
v -1.4 2.7 -2
v 1.4 2.7 -2
v -1.3 2.8 2.7
v 1.3 2.8 2.7
v -1.3 2.8 2.6
v 1.3 2.8 2.6
v -1.6 2.8 2.5
v -1.5 2.8 2.5
v 1.5 2.8 2.5
v 1.6 2.8 2.5
v -1.6 2.8 2.4
v -1.5 2.8 2.4
v 1.5 2.8 2.4
v 1.6 2.8 2.4
v -1.6 2.8 -1.3
v -1.5 2.8 -1.3
v 1.5 2.8 -1.3
v 1.6 2.8 -1.3
v -1.5 2.8 -1.6
v -1.4 2.8 -1.6
v 1.4 2.8 -1.6
v 1.5 2.8 -1.6
v -1.4 2.8 -1.7
v -1.1 2.8 -1.7
v 1.1 2.8 -1.7
v 1.4 2.8 -1.7
v -1.6 2.8 -1.8
v -1.1 2.8 -1.8
v -0.9 2.8 -1.8
v 0.9 2.8 -1.8
v 1.1 2.8 -1.8
v 1.6 2.8 -1.8
v -0.9 2.8 -1.9
v 0.9 2.8 -1.9
v -1.3 2.9 2.6
v 1.3 2.9 2.6
v -1.5 2.9 2.5
v -1.3 2.9 2.5
v 1.3 2.9 2.5
v 1.5 2.9 2.5
v -1.6 2.9 2.4
v -1.5 2.9 2.4
v 1.5 2.9 2.4
v 1.6 2.9 2.4
v -1.6 2.9 -1.3
v -1.5 2.9 -1.3
v 1.5 2.9 -1.3
v 1.6 2.9 -1.3
v -1.5 2.9 -1.6
v -1.4 2.9 -1.6
v 1.4 2.9 -1.6
v 1.5 2.9 -1.6
v -1.4 2.9 -1.7
v -1.1 2.9 -1.7
v 1.1 2.9 -1.7
v 1.4 2.9 -1.7
v -1.1 2.9 -1.8
v 1.1 2.9 -1.8

# faces
f 9/2/1 4/2/1 3/2/1
f 10/2/1 6/2/1 5/2/1
f 11/2/1 10/2/1 9/2/1
f 12/2/1 10/2/1 11/2/1
f 13/2/1 2/2/1 1/2/1
f 14/2/1 9/2/1 3/2/1
f 14/2/1 11/2/1 9/2/1
f 15/2/1 11/2/1 14/2/1
f 16/2/1 11/2/1 15/2/1
f 17/2/1 10/2/1 12/2/1
f 18/2/1 6/2/1 10/2/1
f 18/2/1 10/2/1 17/2/1
f 19/2/1 6/2/1 18/2/1
f 20/2/1 8/2/1 7/2/1
f 21/2/1 13/2/1 1/2/1
f 21/2/1 14/2/1 13/2/1
f 21/2/1 15/2/1 14/2/1
f 22/2/1 15/2/1 21/2/1
f 23/2/1 20/2/1 19/2/1
f 23/2/1 19/2/1 18/2/1
f 24/2/1 8/2/1 20/2/1
f 24/2/1 20/2/1 23/2/1
f 30/4/1 26/4/1 25/4/1
f 31/4/1 26/4/1 30/4/1
f 32/4/1 26/4/1 31/4/1
f 33/4/1 26/4/1 32/4/1
f 36/4/1 28/4/1 27/4/1
f 37/4/1 28/4/1 36/4/1
f 38/4/1 28/4/1 37/4/1
f 39/4/1 28/4/1 38/4/1
f 41/4/1 30/4/1 29/4/1
f 41/4/1 31/4/1 30/4/1
f 42/4/1 31/4/1 41/4/1
f 43/6/1 32/6/1 31/6/1
f 43/4/1 31/4/1 42/4/1
f 44/4/1 34/4/1 33/4/1
f 44/6/1 32/6/1 43/6/1
f 44/4/1 33/4/1 32/4/1
f 45/4/1 34/4/1 44/4/1
f 46/4/1 34/4/1 45/4/1
f 47/4/1 36/4/1 35/4/1
f 47/4/1 37/4/1 36/4/1
f 48/4/1 37/4/1 47/4/1
f 49/6/1 38/6/1 37/6/1
f 49/4/1 37/4/1 48/4/1
f 50/4/1 40/4/1 39/4/1
f 50/6/1 38/6/1 49/6/1
f 50/4/1 39/4/1 38/4/1
f 51/4/1 40/4/1 50/4/1
f 52/4/1 40/4/1 51/4/1
f 55/4/1 43/4/1 42/4/1
f 55/4/1 45/4/1 44/4/1
f 55/4/1 44/4/1 43/4/1
f 56/4/1 45/4/1 55/4/1
f 57/4/1 49/4/1 48/4/1
f 57/4/1 51/4/1 50/4/1
f 57/4/1 50/4/1 49/4/1
f 58/4/1 51/4/1 57/4/1
f 64/2/1 56/2/1 55/2/1
f 65/2/1 56/2/1 64/2/1
f 67/2/1 63/2/1 62/2/1
f 68/2/1 63/2/1 67/2/1
f 70/2/1 58/2/1 57/2/1
f 71/2/1 58/2/1 70/2/1
f 72/2/1 60/2/1 59/2/1
f 72/6/1 61/6/1 60/6/1
f 73/6/1 61/6/1 72/6/1
f 74/2/1 72/2/1 59/2/1
f 76/2/1 54/2/1 53/2/1
f 77/2/1 69/2/1 68/2/1
f 77/2/1 68/2/1 67/2/1
f 77/2/1 67/2/1 66/2/1
f 78/2/1 69/2/1 77/2/1
f 79/2/1 75/2/1 74/2/1
f 79/2/1 74/2/1 59/2/1
f 80/2/1 78/2/1 77/2/1
f 80/2/1 79/2/1 78/2/1
f 80/2/1 75/2/1 79/2/1
f 80/2/1 77/2/1 76/2/1
f 81/2/1 75/2/1 80/2/1
f 82/2/1 76/2/1 53/2/1
f 82/2/1 80/2/1 76/2/1
f 83/2/1 80/2/1 82/2/1
f 84/2/1 80/2/1 83/2/1
f 85/2/1 80/2/1 84/2/1
f 86/2/1 84/2/1 83/2/1
f 87/2/1 84/2/1 86/2/1
f 88/2/1 84/2/1 87/2/1
f 89/2/1 84/2/1 88/2/1
f 90/2/1 84/2/1 89/2/1
f 91/2/1 84/2/1 90/2/1
f 92/2/1 90/2/1 89/2/1
f 93/2/1 90/2/1 92/2/1
f 94/2/1 86/2/1 83/2/1
f 95/2/1 86/2/1 94/2/1
f 96/1/1 87/1/1 86/1/1
f 96/2/1 86/2/1 95/2/1
f 97/2/1 88/2/1 87/2/1
f 97/1/1 87/1/1 96/1/1
f 98/1/1 89/1/1 88/1/1
f 98/2/1 88/2/1 97/2/1
f 99/2/1 92/2/1 89/2/1
f 99/1/1 89/1/1 98/1/1
f 100/2/1 96/2/1 95/2/1
f 100/2/1 99/2/1 98/2/1
f 100/2/1 97/2/1 96/2/1
f 100/2/1 98/2/1 97/2/1
f 101/2/1 99/2/1 100/2/1
f 102/2/1 99/2/1 101/2/1
f 103/2/1 99/2/1 102/2/1
f 104/2/1 99/2/1 103/2/1
f 105/2/1 92/2/1 99/2/1
f 105/2/1 99/2/1 104/2/1
f 106/2/1 104/2/1 103/2/1
f 107/2/1 104/2/1 106/2/1
f 112/2/1 109/2/1 108/2/1
f 113/2/1 109/2/1 112/2/1
f 114/2/1 111/2/1 110/2/1
f 115/2/1 111/2/1 114/2/1
f 116/2/1 112/2/1 108/2/1
f 117/2/1 112/2/1 116/2/1
f 122/2/1 119/2/1 118/2/1
f 123/2/1 119/2/1 122/2/1
f 124/2/1 121/2/1 120/2/1
f 125/2/1 121/2/1 124/2/1
f 128/2/1 127/2/1 126/2/1
f 129/2/1 127/2/1 128/2/1
f 132/2/1 131/2/1 130/2/1
f 133/2/1 131/2/1 132/2/1
f 136/2/1 135/2/1 134/2/1
f 137/2/1 135/2/1 136/2/1
f 140/4/1 139/4/1 138/4/1
f 141/4/1 139/4/1 140/4/1
f 144/2/1 143/2/1 142/2/1
f 145/2/1 143/2/1 144/2/1
f 146/2/1 143/2/1 145/2/1
f 147/2/1 143/2/1 146/2/1
f 150/2/1 149/2/1 148/2/1
f 151/2/1 149/2/1 150/2/1
f 152/2/1 149/2/1 151/2/1
f 153/2/1 149/2/1 152/2/1
f 156/2/1 155/2/1 154/2/1
f 157/2/1 155/2/1 156/2/1
f 160/2/1 159/2/1 158/2/1
f 161/2/1 159/2/1 160/2/1
f 164/2/1 163/2/1 162/2/1
f 165/2/1 163/2/1 164/2/1
f 168/6/1 167/6/1 166/6/1
f 169/6/1 167/6/1 168/6/1
f 172/2/1 171/2/1 170/2/1
f 173/2/1 171/2/1 172/2/1
f 176/2/1 175/2/1 174/2/1
f 177/2/1 175/2/1 176/2/1
f 180/2/1 179/2/1 178/2/1
f 181/2/1 179/2/1 180/2/1
f 186/4/1 185/4/1 184/4/1
f 189/4/1 183/4/1 182/4/1
f 190/4/1 183/4/1 189/4/1
f 193/4/1 187/4/1 186/4/1
f 193/4/1 186/4/1 184/4/1
f 194/4/1 191/4/1 190/4/1
f 194/4/1 190/4/1 189/4/1
f 194/4/1 189/4/1 188/4/1
f 195/4/1 191/4/1 194/4/1
f 196/4/1 193/4/1 192/4/1
f 197/4/1 187/4/1 193/4/1
f 197/4/1 193/4/1 196/4/1
f 200/4/2 201/4/2 202/4/2
f 198/4/2 199/4/2 205/4/2
f 205/4/2 199/4/2 206/4/2
f 202/4/2 203/4/2 209/4/2
f 200/4/2 202/4/2 209/4/2
f 206/4/2 207/4/2 210/4/2
f 205/4/2 206/4/2 210/4/2
f 204/4/2 205/4/2 210/4/2
f 210/4/2 207/4/2 211/4/2
f 208/4/2 209/4/2 212/4/2
f 209/4/2 203/4/2 213/4/2
f 212/4/2 209/4/2 213/4/2
f 214/2/2 215/2/2 216/2/2
f 216/2/2 215/2/2 217/2/2
f 218/2/2 219/2/2 220/2/2
f 220/2/2 219/2/2 221/2/2
f 222/2/2 223/2/2 224/2/2
f 224/2/2 223/2/2 225/2/2
f 226/6/2 227/6/2 228/6/2
f 228/6/2 227/6/2 229/6/2
f 230/2/2 231/2/2 232/2/2
f 232/2/2 231/2/2 233/2/2
f 234/2/2 235/2/2 236/2/2
f 236/2/2 235/2/2 237/2/2
f 238/2/2 239/2/2 240/2/2
f 240/2/2 239/2/2 241/2/2
f 242/4/2 243/4/2 244/4/2
f 244/4/2 243/4/2 245/4/2
f 246/2/2 247/2/2 248/2/2
f 248/2/2 247/2/2 249/2/2
f 249/2/2 247/2/2 250/2/2
f 250/2/2 247/2/2 251/2/2
f 252/2/2 253/2/2 254/2/2
f 254/2/2 253/2/2 255/2/2
f 255/2/2 253/2/2 256/2/2
f 256/2/2 253/2/2 257/2/2
f 258/2/2 259/2/2 260/2/2
f 260/2/2 259/2/2 261/2/2
f 262/2/2 263/2/2 264/2/2
f 264/2/2 263/2/2 265/2/2
f 266/2/2 267/2/2 268/2/2
f 268/2/2 267/2/2 269/2/2
f 270/2/2 271/2/2 274/2/2
f 274/2/2 271/2/2 275/2/2
f 272/2/2 273/2/2 276/2/2
f 276/2/2 273/2/2 277/2/2
f 270/2/2 274/2/2 278/2/2
f 278/2/2 274/2/2 279/2/2
f 280/2/2 281/2/2 284/2/2
f 284/2/2 281/2/2 285/2/2
f 282/2/2 283/2/2 286/2/2
f 286/2/2 283/2/2 287/2/2
f 288/4/2 289/4/2 293/4/2
f 293/4/2 289/4/2 294/4/2
f 294/4/2 289/4/2 295/4/2
f 295/4/2 289/4/2 296/4/2
f 290/4/2 291/4/2 299/4/2
f 299/4/2 291/4/2 300/4/2
f 300/4/2 291/4/2 301/4/2
f 301/4/2 291/4/2 302/4/2
f 292/4/2 293/4/2 304/4/2
f 293/4/2 294/4/2 304/4/2
f 304/4/2 294/4/2 305/4/2
f 294/6/2 295/6/2 306/6/2
f 305/4/2 294/4/2 306/4/2
f 296/4/2 297/4/2 307/4/2
f 306/6/2 295/6/2 307/6/2
f 295/4/2 296/4/2 307/4/2
f 307/4/2 297/4/2 308/4/2
f 308/4/2 297/4/2 309/4/2
f 298/4/2 299/4/2 310/4/2
f 299/4/2 300/4/2 310/4/2
f 310/4/2 300/4/2 311/4/2
f 300/6/2 301/6/2 312/6/2
f 311/4/2 300/4/2 312/4/2
f 302/4/2 303/4/2 313/4/2
f 312/6/2 301/6/2 313/6/2
f 301/4/2 302/4/2 313/4/2
f 313/4/2 303/4/2 314/4/2
f 314/4/2 303/4/2 315/4/2
f 305/4/2 306/4/2 318/4/2
f 307/4/2 308/4/2 318/4/2
f 306/4/2 307/4/2 318/4/2
f 318/4/2 308/4/2 319/4/2
f 311/4/2 312/4/2 320/4/2
f 313/4/2 314/4/2 320/4/2
f 312/4/2 313/4/2 320/4/2
f 320/4/2 314/4/2 321/4/2
f 318/2/2 319/2/2 327/2/2
f 327/2/2 319/2/2 328/2/2
f 325/2/2 326/2/2 330/2/2
f 330/2/2 326/2/2 331/2/2
f 320/2/2 321/2/2 333/2/2
f 333/2/2 321/2/2 334/2/2
f 322/2/2 323/2/2 335/2/2
f 323/6/2 324/6/2 335/6/2
f 335/6/2 324/6/2 336/6/2
f 322/2/2 335/2/2 337/2/2
f 316/2/2 317/2/2 339/2/2
f 331/2/2 332/2/2 340/2/2
f 330/2/2 331/2/2 340/2/2
f 329/2/2 330/2/2 340/2/2
f 340/2/2 332/2/2 341/2/2
f 337/2/2 338/2/2 342/2/2
f 322/2/2 337/2/2 342/2/2
f 340/2/2 341/2/2 343/2/2
f 341/2/2 342/2/2 343/2/2
f 342/2/2 338/2/2 343/2/2
f 339/2/2 340/2/2 343/2/2
f 343/2/2 338/2/2 344/2/2
f 316/2/2 339/2/2 345/2/2
f 339/2/2 343/2/2 345/2/2
f 345/2/2 343/2/2 346/2/2
f 346/2/2 343/2/2 347/2/2
f 347/2/2 343/2/2 348/2/2
f 346/2/2 347/2/2 349/2/2
f 349/2/2 347/2/2 350/2/2
f 350/2/2 347/2/2 351/2/2
f 351/2/2 347/2/2 352/2/2
f 352/2/2 347/2/2 353/2/2
f 353/2/2 347/2/2 354/2/2
f 352/2/2 353/2/2 355/2/2
f 355/2/2 353/2/2 356/2/2
f 346/2/2 349/2/2 357/2/2
f 357/2/2 349/2/2 358/2/2
f 349/1/2 350/1/2 359/1/2
f 358/2/2 349/2/2 359/2/2
f 350/2/2 351/2/2 360/2/2
f 359/1/2 350/1/2 360/1/2
f 351/1/2 352/1/2 361/1/2
f 360/2/2 351/2/2 361/2/2
f 352/2/2 355/2/2 362/2/2
f 361/1/2 352/1/2 362/1/2
f 358/2/2 359/2/2 363/2/2
f 361/2/2 362/2/2 363/2/2
f 359/2/2 360/2/2 363/2/2
f 360/2/2 361/2/2 363/2/2
f 363/2/2 362/2/2 364/2/2
f 364/2/2 362/2/2 365/2/2
f 365/2/2 362/2/2 366/2/2
f 366/2/2 362/2/2 367/2/2
f 362/2/2 355/2/2 368/2/2
f 367/2/2 362/2/2 368/2/2
f 366/2/2 367/2/2 369/2/2
f 369/2/2 367/2/2 370/2/2
f 373/2/2 374/2/2 379/2/2
f 375/2/2 376/2/2 380/2/2
f 379/2/2 380/2/2 381/2/2
f 381/2/2 380/2/2 382/2/2
f 371/2/2 372/2/2 383/2/2
f 373/2/2 379/2/2 384/2/2
f 379/2/2 381/2/2 384/2/2
f 384/2/2 381/2/2 385/2/2
f 385/2/2 381/2/2 386/2/2
f 382/2/2 380/2/2 387/2/2
f 380/2/2 376/2/2 388/2/2
f 387/2/2 380/2/2 388/2/2
f 388/2/2 376/2/2 389/2/2
f 377/2/2 378/2/2 390/2/2
f 371/2/2 383/2/2 391/2/2
f 383/2/2 384/2/2 391/2/2
f 384/2/2 385/2/2 391/2/2
f 391/2/2 385/2/2 392/2/2
f 389/2/2 390/2/2 393/2/2
f 388/2/2 389/2/2 393/2/2
f 390/2/2 378/2/2 394/2/2
f 393/2/2 390/2/2 394/2/2
f 397/2/3 396/2/3 395/2/3
f 398/2/3 396/2/3 397/2/3
f 399/3/3 398/3/3 397/3/3
f 400/3/3 398/3/3 399/3/3
f 401/3/3 398/3/3 400/3/3
f 402/3/3 399/3/3 397/3/3
f 402/5/3 400/5/3 399/5/3
f 403/7/3 401/7/3 400/7/3
f 403/5/3 400/5/3 402/5/3
f 404/3/3 398/3/3 401/3/3
f 404/7/3 401/7/3 403/7/3
f 405/7/3 403/7/3 402/7/3
f 405/3/3 402/3/3 397/3/3
f 406/5/3 404/5/3 403/5/3
f 406/7/3 403/7/3 405/7/3
f 407/3/3 398/3/3 404/3/3
f 407/5/3 404/5/3 406/5/3
f 408/5/3 406/5/3 405/5/3
f 408/7/3 407/7/3 406/7/3
f 409/3/3 398/3/3 407/3/3
f 409/7/3 407/7/3 408/7/3
f 410/5/3 408/5/3 405/5/3
f 410/3/3 405/3/3 397/3/3
f 410/5/3 409/5/3 408/5/3
f 411/3/3 398/3/3 409/3/3
f 411/5/3 409/5/3 410/5/3
f 412/7/3 411/7/3 410/7/3
f 413/7/3 411/7/3 412/7/3
f 414/7/3 412/7/3 410/7/3
f 414/5/3 413/5/3 412/5/3
f 415/7/3 411/7/3 413/7/3
f 415/5/3 413/5/3 414/5/3
f 416/3/3 410/3/3 397/3/3
f 416/7/3 414/7/3 410/7/3
f 416/7/3 415/7/3 414/7/3
f 417/7/3 411/7/3 415/7/3
f 417/7/3 415/7/3 416/7/3
f 417/3/3 398/3/3 411/3/3
f 418/3/3 416/3/3 397/3/3
f 418/5/3 417/5/3 416/5/3
f 419/3/3 398/3/3 417/3/3
f 419/5/3 417/5/3 418/5/3
f 420/7/3 419/7/3 418/7/3
f 421/7/3 419/7/3 420/7/3
f 422/3/3 418/3/3 397/3/3
f 422/7/3 420/7/3 418/7/3
f 423/5/3 421/5/3 420/5/3
f 423/7/3 420/7/3 422/7/3
f 424/7/3 419/7/3 421/7/3
f 424/5/3 421/5/3 423/5/3
f 425/3/3 398/3/3 419/3/3
f 425/7/3 419/7/3 424/7/3
f 426/5/3 423/5/3 422/5/3
f 426/7/3 424/7/3 423/7/3
f 427/5/3 425/5/3 424/5/3
f 427/7/3 424/7/3 426/7/3
f 428/5/3 426/5/3 422/5/3
f 428/3/3 422/3/3 397/3/3
f 428/5/3 427/5/3 426/5/3
f 429/3/3 398/3/3 425/3/3
f 429/5/3 427/5/3 428/5/3
f 429/5/3 425/5/3 427/5/3
f 430/3/3 428/3/3 397/3/3
f 430/7/3 429/7/3 428/7/3
f 431/3/3 398/3/3 429/3/3
f 431/7/3 429/7/3 430/7/3
f 432/3/3 430/3/3 397/3/3
f 432/5/3 431/5/3 430/5/3
f 433/3/3 398/3/3 431/3/3
f 433/5/3 431/5/3 432/5/3
f 434/3/3 432/3/3 397/3/3
f 434/3/3 433/3/3 432/3/3
f 435/2/3 396/2/3 398/2/3
f 435/3/3 433/3/3 434/3/3
f 435/3/3 398/3/3 433/3/3
f 436/2/3 435/2/3 434/2/3
f 437/2/3 396/2/3 435/2/3
f 437/2/3 435/2/3 436/2/3
f 440/2/3 439/2/3 438/2/3
f 442/2/3 440/2/3 438/2/3
f 442/2/3 441/2/3 440/2/3
f 443/2/3 441/2/3 442/2/3
f 444/2/3 442/2/3 438/2/3
f 445/2/3 442/2/3 444/2/3
f 448/2/3 447/2/3 446/2/3
f 449/2/3 447/2/3 448/2/3
f 452/2/3 451/2/3 450/2/3
f 453/2/3 451/2/3 452/2/3
f 456/2/3 455/2/3 454/2/3
f 458/2/3 456/2/3 454/2/3
f 458/2/3 457/2/3 456/2/3
f 459/2/3 457/2/3 458/2/3
f 460/2/3 457/2/3 459/2/3
f 462/2/3 461/2/3 460/2/3
f 462/2/3 460/2/3 459/2/3
f 463/2/3 461/2/3 462/2/3
f 464/2/3 462/2/3 459/2/3
f 464/1/3 463/1/3 462/1/3
f 465/2/3 461/2/3 463/2/3
f 465/1/3 463/1/3 464/1/3
f 467/2/3 464/2/3 459/2/3
f 467/2/3 465/2/3 464/2/3
f 468/2/3 461/2/3 465/2/3
f 468/2/3 465/2/3 467/2/3
f 469/2/3 461/2/3 468/2/3
f 470/2/3 467/2/3 466/2/3
f 470/2/3 468/2/3 467/2/3
f 471/2/3 468/2/3 470/2/3
f 472/2/3 470/2/3 466/2/3
f 473/2/3 470/2/3 472/2/3
f 477/2/3 475/2/3 474/2/3
f 478/2/3 475/2/3 477/2/3
f 479/2/3 475/2/3 478/2/3
f 482/2/3 481/2/3 480/2/3
f 483/2/3 481/2/3 482/2/3
f 486/4/3 477/4/3 476/4/3
f 486/4/3 478/4/3 477/4/3
f 487/4/3 478/4/3 486/4/3
f 490/2/3 485/2/3 484/2/3
f 491/2/3 485/2/3 490/2/3
f 494/4/3 489/4/3 488/4/3
f 495/4/3 489/4/3 494/4/3
f 496/4/3 489/4/3 495/4/3
f 498/2/3 493/2/3 492/2/3
f 499/2/3 493/2/3 498/2/3
f 500/2/3 497/2/3 496/2/3
f 500/2/3 496/2/3 495/2/3
f 501/2/3 497/2/3 500/2/3
f 506/2/3 505/2/3 504/2/3
f 508/2/3 506/2/3 504/2/3
f 508/2/3 507/2/3 506/2/3
f 509/2/3 507/2/3 508/2/3
f 510/4/3 503/4/3 502/4/3
f 511/4/3 503/4/3 510/4/3
f 516/2/3 515/2/3 514/2/3
f 517/2/3 515/2/3 516/2/3
f 518/4/3 513/4/3 512/4/3
f 519/4/3 513/4/3 518/4/3
f 520/2/3 516/2/3 514/2/3
f 521/2/3 516/2/3 520/2/3
f 524/2/3 523/2/3 522/2/3
f 525/2/3 523/2/3 524/2/3
f 528/2/3 527/2/3 526/2/3
f 529/2/3 527/2/3 528/2/3
f 532/2/3 531/2/3 530/2/3
f 533/2/3 531/2/3 532/2/3
f 534/2/3 531/2/3 533/2/3
f 538/2/3 536/2/3 535/2/3
f 538/2/3 537/2/3 536/2/3
f 539/2/3 537/2/3 538/2/3
f 542/2/3 541/2/3 540/2/3
f 543/2/3 541/2/3 542/2/3
f 546/2/3 545/2/3 544/2/3
f 547/2/3 545/2/3 546/2/3
f 553/2/3 549/2/3 548/2/3
f 554/2/3 549/2/3 553/2/3
f 555/2/3 551/2/3 550/2/3
f 556/2/3 551/2/3 555/2/3
f 557/4/3 554/4/3 553/4/3
f 557/4/3 553/4/3 552/4/3
f 558/4/3 554/4/3 557/4/3
f 561/4/3 560/4/3 559/4/3
f 562/4/3 560/4/3 561/4/3
f 563/4/3 560/4/3 562/4/3
f 566/2/3 563/2/3 562/2/3
f 567/2/3 563/2/3 566/2/3
f 568/2/3 565/2/3 564/2/3
f 569/2/3 565/2/3 568/2/3
f 572/4/3 571/4/3 570/4/3
f 573/4/3 571/4/3 572/4/3
f 576/4/3 575/4/3 574/4/3
f 577/4/3 575/4/3 576/4/3
f 580/2/3 579/2/3 578/2/3
f 581/2/3 579/2/3 580/2/3
f 582/2/3 579/2/3 581/2/3
f 586/2/3 584/2/3 583/2/3
f 586/2/3 585/2/3 584/2/3
f 587/2/3 585/2/3 586/2/3
f 588/2/4 589/2/4 590/2/4
f 590/2/4 589/2/4 591/2/4
f 591/2/4 589/2/4 592/2/4
f 593/2/4 594/2/4 596/2/4
f 594/2/4 595/2/4 596/2/4
f 596/2/4 595/2/4 597/2/4
f 598/4/4 599/4/4 600/4/4
f 600/4/4 599/4/4 601/4/4
f 602/4/4 603/4/4 604/4/4
f 604/4/4 603/4/4 605/4/4
f 606/2/4 607/2/4 611/2/4
f 611/2/4 607/2/4 612/2/4
f 608/2/4 609/2/4 613/2/4
f 613/2/4 609/2/4 614/2/4
f 611/4/4 612/4/4 615/4/4
f 610/4/4 611/4/4 615/4/4
f 615/4/4 612/4/4 616/4/4
f 617/4/4 618/4/4 619/4/4
f 619/4/4 618/4/4 620/4/4
f 620/4/4 618/4/4 621/4/4
f 620/2/4 621/2/4 624/2/4
f 624/2/4 621/2/4 625/2/4
f 622/2/4 623/2/4 626/2/4
f 626/2/4 623/2/4 627/2/4
f 628/2/4 629/2/4 630/2/4
f 630/2/4 629/2/4 631/2/4
f 632/2/4 633/2/4 634/2/4
f 634/2/4 633/2/4 635/2/4
f 636/2/4 637/2/4 638/2/4
f 638/2/4 637/2/4 639/2/4
f 640/2/4 641/2/4 642/2/4
f 642/2/4 641/2/4 643/2/4
f 644/2/4 645/2/4 646/2/4
f 646/2/4 645/2/4 647/2/4
f 648/2/4 649/2/4 650/2/4
f 650/2/4 649/2/4 651/2/4
f 652/2/4 653/2/4 654/2/4
f 654/2/4 653/2/4 655/2/4
f 656/2/4 657/2/4 658/2/4
f 658/2/4 657/2/4 659/2/4
f 660/2/4 661/2/4 662/2/4
f 662/2/4 661/2/4 663/2/4
f 663/2/4 661/2/4 664/2/4
f 663/2/4 664/2/4 666/2/4
f 664/2/4 665/2/4 666/2/4
f 666/2/4 665/2/4 667/2/4
f 667/2/4 665/2/4 669/2/4
f 669/2/4 665/2/4 670/2/4
f 668/2/4 669/2/4 670/2/4
f 670/2/4 665/2/4 671/2/4
f 668/2/4 670/2/4 673/2/4
f 672/2/4 673/2/4 674/2/4
f 673/2/4 670/2/4 675/2/4
f 674/2/4 673/2/4 675/2/4
f 676/2/4 677/2/4 678/2/4
f 678/2/4 677/2/4 679/2/4
f 680/2/4 681/2/4 682/2/4
f 682/2/4 681/2/4 683/2/4
f 684/2/4 685/2/4 686/2/4
f 686/2/4 685/2/4 687/2/4
f 688/2/4 689/2/4 690/2/4
f 688/2/4 690/2/4 692/2/4
f 690/2/4 691/2/4 692/2/4
f 692/2/4 691/2/4 693/2/4
f 693/2/4 691/2/4 694/2/4
f 692/1/4 693/1/4 696/1/4
f 694/2/4 695/2/4 697/2/4
f 696/1/4 693/1/4 697/1/4
f 693/2/4 694/2/4 697/2/4
f 697/2/4 695/2/4 698/2/4
f 698/2/4 695/2/4 699/2/4
f 696/2/4 697/2/4 700/2/4
f 697/2/4 698/2/4 700/2/4
f 700/2/4 698/2/4 701/2/4
f 696/2/4 700/2/4 702/2/4
f 702/2/4 700/2/4 703/2/4
f 704/2/4 705/2/4 706/2/4
f 706/2/4 705/2/4 707/2/4
f 707/2/4 705/2/4 708/2/4
f 709/2/4 710/2/4 712/2/4
f 710/2/4 711/2/4 712/2/4
f 712/2/4 711/2/4 713/2/4
f 714/2/4 715/2/4 716/2/4
f 716/2/4 715/2/4 717/2/4
f 718/4/4 719/4/4 720/4/4
f 720/4/4 719/4/4 721/4/4
f 718/4/4 720/4/4 722/4/4
f 722/4/4 720/4/4 723/4/4
f 724/4/4 725/4/4 726/4/4
f 724/4/4 726/4/4 728/4/4
f 726/4/4 727/4/4 728/4/4
f 728/4/4 727/4/4 729/4/4
f 730/2/4 731/2/4 733/2/4
f 733/2/4 731/2/4 734/2/4
f 734/2/4 731/2/4 735/2/4
f 732/4/4 733/4/4 737/4/4
f 733/4/4 734/4/4 737/4/4
f 736/4/4 737/4/4 738/4/4
f 737/4/4 734/4/4 739/4/4
f 738/4/4 737/4/4 739/4/4
f 740/4/4 741/4/4 742/4/4
f 742/4/4 741/4/4 743/4/4
f 743/4/4 741/4/4 744/4/4
f 744/4/4 741/4/4 745/4/4
f 745/4/4 741/4/4 746/4/4
f 745/2/4 746/2/4 748/2/4
f 746/2/4 747/2/4 748/2/4
f 748/2/4 747/2/4 749/2/4
f 750/2/4 751/2/4 752/2/4
f 752/2/4 751/2/4 753/2/4
f 754/2/4 755/2/4 756/2/4
f 756/2/4 755/2/4 757/2/4
f 758/2/4 759/2/4 760/2/4
f 758/2/4 760/2/4 762/2/4
f 760/2/4 761/2/4 762/2/4
f 762/2/4 761/2/4 763/2/4
f 763/2/4 761/2/4 764/2/4
f 763/2/4 764/2/4 766/2/4
f 764/2/4 765/2/4 766/2/4
f 766/2/4 765/2/4 767/2/4
f 763/2/4 766/2/4 768/2/4
f 763/2/4 768/2/4 770/2/4
f 768/2/4 769/2/4 770/2/4
f 770/2/4 769/2/4 771/2/4
f 763/2/4 770/2/4 773/2/4
f 773/2/4 770/2/4 774/2/4
f 772/2/4 773/2/4 774/2/4
f 774/2/4 770/2/4 775/2/4
f 772/2/4 774/2/4 776/2/4
f 776/2/4 774/2/4 777/2/4
f 780/2/4 781/2/4 782/2/4
f 780/2/4 782/2/4 784/2/4
f 782/2/4 783/2/4 784/2/4
f 784/2/4 783/2/4 785/2/4
f 778/6/4 779/6/4 786/6/4
f 785/2/4 783/2/4 788/2/4
f 788/2/4 783/2/4 789/2/4
f 789/2/4 783/2/4 791/2/4
f 790/2/4 791/2/4 792/2/4
f 791/2/4 783/2/4 793/2/4
f 792/2/4 791/2/4 793/2/4
f 793/2/4 783/2/4 795/2/4
f 786/6/4 787/6/4 796/6/4
f 778/6/4 786/6/4 796/6/4
f 796/6/4 787/6/4 797/6/4
f 794/2/4 795/2/4 799/2/4
f 795/2/4 783/2/4 800/2/4
f 798/2/4 799/2/4 800/2/4
f 799/2/4 795/2/4 800/2/4
f 800/2/4 783/2/4 801/2/4
f 778/6/4 796/6/4 802/6/4
f 802/6/4 796/6/4 803/6/4
f 798/2/4 800/2/4 804/2/4
f 804/2/4 800/2/4 805/2/4
f 810/4/5 807/4/5 806/4/5
f 811/4/5 807/4/5 810/4/5
f 812/4/5 809/4/5 808/4/5
f 813/4/5 809/4/5 812/4/5
f 818/4/5 815/4/5 814/4/5
f 819/4/5 815/4/5 818/4/5
f 820/4/5 817/4/5 816/4/5
f 821/4/5 817/4/5 820/4/5
f 826/4/5 823/4/5 822/4/5
f 827/4/5 823/4/5 826/4/5
f 828/4/5 825/4/5 824/4/5
f 829/4/5 825/4/5 828/4/5
f 834/4/5 831/4/5 830/4/5
f 835/4/5 831/4/5 834/4/5
f 836/4/5 833/4/5 832/4/5
f 837/4/5 833/4/5 836/4/5
f 842/4/5 839/4/5 838/4/5
f 843/4/5 839/4/5 842/4/5
f 844/4/5 841/4/5 840/4/5
f 845/4/5 841/4/5 844/4/5
f 850/4/5 847/4/5 846/4/5
f 851/4/5 847/4/5 850/4/5
f 852/4/5 849/4/5 848/4/5
f 853/4/5 849/4/5 852/4/5
f 858/4/5 855/4/5 854/4/5
f 859/4/5 855/4/5 858/4/5
f 860/4/5 857/4/5 856/4/5
f 861/4/5 857/4/5 860/4/5
f 866/2/5 863/2/5 862/2/5
f 867/2/5 863/2/5 866/2/5
f 868/2/5 865/2/5 864/2/5
f 869/2/5 865/2/5 868/2/5
f 874/2/5 871/2/5 870/2/5
f 875/2/5 871/2/5 874/2/5
f 876/2/5 873/2/5 872/2/5
f 877/2/5 873/2/5 876/2/5
f 882/2/5 879/2/5 878/2/5
f 883/2/5 879/2/5 882/2/5
f 884/2/5 881/2/5 880/2/5
f 885/2/5 881/2/5 884/2/5
f 890/2/5 887/2/5 886/2/5
f 891/2/5 887/2/5 890/2/5
f 892/2/5 889/2/5 888/2/5
f 893/2/5 889/2/5 892/2/5
f 898/2/5 895/2/5 894/2/5
f 898/3/5 896/3/5 895/3/5
f 899/2/5 897/2/5 896/2/5
f 899/3/5 896/3/5 898/3/5
f 900/2/5 898/2/5 894/2/5
f 900/2/5 899/2/5 898/2/5
f 901/2/5 899/2/5 900/2/5
f 902/2/5 897/2/5 899/2/5
f 902/2/5 899/2/5 901/2/5
f 903/2/5 897/2/5 902/2/5
f 906/2/5 902/2/5 901/2/5
f 907/2/5 902/2/5 906/2/5
f 910/2/5 908/2/5 907/2/5
f 910/2/5 909/2/5 908/2/5
f 910/2/5 907/2/5 906/2/5
f 910/2/5 906/2/5 905/2/5
f 910/2/5 905/2/5 904/2/5
f 911/2/5 909/2/5 910/2/5
f 912/2/5 909/2/5 911/2/5
f 913/2/5 909/2/5 912/2/5
f 914/2/5 909/2/5 913/2/5
f 915/2/5 909/2/5 914/2/5
f 917/2/5 913/2/5 912/2/5
f 918/2/5 913/2/5 917/2/5
f 920/2/5 917/2/5 916/2/5
f 920/2/5 919/2/5 918/2/5
f 920/2/5 918/2/5 917/2/5
f 921/2/5 919/2/5 920/2/5
f 922/6/5 921/6/5 920/6/5
f 923/6/5 921/6/5 922/6/5
f 928/2/5 925/2/5 924/2/5
f 929/2/5 925/2/5 928/2/5
f 930/2/5 927/2/5 926/2/5
f 931/2/5 927/2/5 930/2/5
f 936/2/5 933/2/5 932/2/5
f 937/2/5 933/2/5 936/2/5
f 938/2/5 935/2/5 934/2/5
f 939/2/5 935/2/5 938/2/5
f 944/2/5 941/2/5 940/2/5
f 945/2/5 941/2/5 944/2/5
f 946/2/5 943/2/5 942/2/5
f 947/2/5 943/2/5 946/2/5
f 954/2/5 949/2/5 948/2/5
f 955/2/5 949/2/5 954/2/5
f 956/2/5 951/2/5 950/2/5
f 957/2/5 951/2/5 956/2/5
f 958/2/5 953/2/5 952/2/5
f 959/2/5 953/2/5 958/2/5
f 964/2/5 961/2/5 960/2/5
f 965/2/5 961/2/5 964/2/5
f 966/2/5 963/2/5 962/2/5
f 967/2/5 963/2/5 966/2/5
f 968/2/6 969/2/6 972/2/6
f 972/2/6 969/2/6 973/2/6
f 970/2/6 971/2/6 974/2/6
f 974/2/6 971/2/6 975/2/6
f 976/2/6 977/2/6 980/2/6
f 980/2/6 977/2/6 981/2/6
f 978/2/6 979/2/6 982/2/6
f 982/2/6 979/2/6 983/2/6
f 984/2/6 985/2/6 988/2/6
f 988/2/6 985/2/6 989/2/6
f 986/2/6 987/2/6 990/2/6
f 990/2/6 987/2/6 991/2/6
f 992/6/6 993/6/6 996/6/6
f 996/6/6 993/6/6 997/6/6
f 994/6/6 995/6/6 998/6/6
f 998/6/6 995/6/6 999/6/6
f 1000/6/6 1001/6/6 1002/6/6
f 1002/6/6 1001/6/6 1003/6/6
f 1004/2/6 1005/2/6 1008/2/6
f 1008/2/6 1005/2/6 1009/2/6
f 1006/2/6 1007/2/6 1010/2/6
f 1010/2/6 1007/2/6 1011/2/6
f 1012/2/6 1013/2/6 1016/2/6
f 1016/2/6 1013/2/6 1017/2/6
f 1014/2/6 1015/2/6 1018/2/6
f 1018/2/6 1015/2/6 1019/2/6
f 1020/2/6 1021/2/6 1024/2/6
f 1024/2/6 1021/2/6 1025/2/6
f 1022/2/6 1023/2/6 1026/2/6
f 1026/2/6 1023/2/6 1027/2/6
f 1028/2/6 1029/2/6 1030/2/6
f 1030/2/6 1029/2/6 1031/2/6
f 1028/2/6 1030/2/6 1032/2/6
f 1032/2/6 1030/2/6 1033/2/6
f 1031/2/6 1029/2/6 1034/2/6
f 1034/2/6 1029/2/6 1035/2/6
f 1036/2/6 1037/2/6 1038/2/6
f 1038/2/6 1037/2/6 1039/2/6
f 1039/2/6 1037/2/6 1040/2/6
f 1040/2/6 1037/2/6 1041/2/6
f 1039/2/6 1040/2/6 1042/2/6
f 1042/2/6 1040/2/6 1043/2/6
f 1044/2/6 1045/2/6 1048/2/6
f 1046/2/6 1047/2/6 1048/2/6
f 1045/2/6 1046/2/6 1048/2/6
f 1048/2/6 1047/2/6 1049/2/6
f 1050/2/6 1051/2/6 1054/2/6
f 1054/2/6 1051/2/6 1055/2/6
f 1052/2/6 1053/2/6 1056/2/6
f 1056/2/6 1053/2/6 1057/2/6
f 1058/2/6 1059/2/6 1061/2/6
f 1061/2/6 1059/2/6 1062/2/6
f 1060/2/6 1061/2/6 1064/2/6
f 1062/2/6 1063/2/6 1064/2/6
f 1061/2/6 1062/2/6 1064/2/6
f 1064/2/6 1063/2/6 1065/2/6
f 1066/2/6 1067/2/6 1070/2/6
f 1070/2/6 1067/2/6 1071/2/6
f 1068/2/6 1069/2/6 1072/2/6
f 1072/2/6 1069/2/6 1073/2/6
f 1074/2/6 1075/2/6 1078/2/6
f 1078/2/6 1075/2/6 1079/2/6
f 1076/2/6 1077/2/6 1080/2/6
f 1080/2/6 1077/2/6 1081/2/6
f 1082/2/6 1083/2/6 1086/2/6
f 1086/2/6 1083/2/6 1087/2/6
f 1084/2/6 1085/2/6 1088/2/6
f 1088/2/6 1085/2/6 1089/2/6
f 1090/2/6 1091/2/6 1095/2/6
f 1092/2/6 1093/2/6 1096/2/6
f 1094/2/6 1095/2/6 1098/2/6
f 1095/2/6 1091/2/6 1099/2/6
f 1098/2/6 1095/2/6 1099/2/6
f 1096/2/6 1097/2/6 1100/2/6
f 1092/2/6 1096/2/6 1100/2/6
f 1100/2/6 1097/2/6 1101/2/6
f 1102/2/6 1103/2/6 1106/2/6
f 1106/2/6 1103/2/6 1107/2/6
f 1107/2/6 1103/2/6 1108/2/6
f 1104/2/6 1105/2/6 1109/2/6
f 1109/2/6 1105/2/6 1110/2/6
f 1110/2/6 1105/2/6 1111/2/6
f 1107/2/6 1108/2/6 1112/2/6
f 1109/2/6 1110/2/6 1112/2/6
f 1108/2/6 1109/2/6 1112/2/6
f 1112/2/6 1110/2/6 1113/2/6
f 1114/2/6 1115/2/6 1116/2/6
f 1116/2/6 1115/2/6 1117/2/6
f 1118/2/6 1119/2/6 1122/2/6
f 1122/2/6 1119/2/6 1123/2/6
f 1120/2/6 1121/2/6 1124/2/6
f 1124/2/6 1121/2/6 1125/2/6
f 1126/2/6 1127/2/6 1130/2/6
f 1128/2/6 1129/2/6 1133/2/6
f 1130/2/6 1131/2/6 1134/2/6
f 1132/2/6 1133/2/6 1137/2/6
f 1134/2/6 1135/2/6 1138/2/6
f 1126/2/6 1130/2/6 1138/2/6
f 1130/2/6 1134/2/6 1138/2/6
f 1138/2/6 1135/2/6 1139/2/6
f 1136/2/6 1137/2/6 1142/2/6
f 1137/2/6 1133/2/6 1143/2/6
f 1142/2/6 1137/2/6 1143/2/6
f 1133/2/6 1129/2/6 1143/2/6
f 1140/2/6 1141/2/6 1144/2/6
f 1144/2/6 1141/2/6 1145/2/6
f 1146/2/6 1147/2/6 1149/2/6
f 1149/2/6 1147/2/6 1150/2/6
f 1148/2/6 1149/2/6 1153/2/6
f 1150/2/6 1151/2/6 1153/2/6
f 1149/2/6 1150/2/6 1153/2/6
f 1153/2/6 1151/2/6 1154/2/6
f 1152/2/6 1153/2/6 1156/2/6
f 1154/2/6 1155/2/6 1156/2/6
f 1153/2/6 1154/2/6 1156/2/6
f 1156/2/6 1155/2/6 1157/2/6
f 1157/2/6 1155/2/6 1158/2/6
f 1158/2/6 1155/2/6 1159/2/6
f 1157/2/6 1158/2/6 1160/2/6
f 1160/2/6 1158/2/6 1161/2/6
f 1161/2/6 1158/2/6 1162/2/6
f 1162/2/6 1158/2/6 1163/2/6
f 1161/2/6 1162/2/6 1164/2/6
f 1164/2/6 1162/2/6 1165/2/6
f 1165/2/6 1162/2/6 1166/2/6
f 1166/2/6 1162/2/6 1167/2/6
f 1165/2/6 1166/2/6 1168/2/6
f 1168/2/6 1166/2/6 1169/2/6
